10-05-19 11:58:03 WARNING Sensors.SensorReader Fahrenheits enabled in configurations. Converting sensor temperature reading to fahrenheits
10-05-19 11:58:03 INFO Utility.TemperatureConverter TemperatureConverter instantiated
10-05-19 11:58:03 INFO Utility.TemperatureConverter Converting temperature to fahrenheits
10-05-19 11:58:03 INFO Sensors.SensorReader Readings: Temperature: 99.68 , Humidity: 24.2. Store sensor readings for handling
10-05-19 11:58:03 INFO Sensors.SensorReader Temperature and humidity data from sensor Inside collected
10-05-19 11:58:03 INFO Sensors.SensorReader Checking when last mail regarding this sensor was sent out. Sensor=Inside
10-05-19 11:58:03 INFO Database.DbActionController getLastSensorMailSentTime
10-05-19 11:58:03 INFO Database.DbActions Executing Sql SELECT
10-05-19 11:58:03 INFO Database.DbActions Executing Sql SELECT finished
10-05-19 11:58:03 WARNING Sensors.SensorReader No entry for last mail sent
10-05-19 11:58:03 INFO Sensors.SensorReader Collecting previously measured values for sensor=Inside
10-05-19 11:58:03 INFO Database.DbActionController Start reading last sensor measurements
10-05-19 11:58:03 INFO Database.DbActions Executing Sql SELECT
10-05-19 11:58:03 INFO Database.DbActions Executing Sql SELECT finished
10-05-19 11:58:03 INFO Sensors.SensorReader Previously measured values collected
10-05-19 11:58:03 INFO Sensors.SensorReader Collecting data for sensor: Inside
10-05-19 11:58:03 INFO Sensors.SensorReader Get readings for the sensor Inside
10-05-19 11:58:03 INFO Sensors.SensorReader Start reading values for sensor type 22 in gpio 18
10-05-19 11:58:05 INFO Sensors.SensorReader Values from sensor: Temp=37.0*  Humidity=23.9%

10-05-19 11:58:05 INFO Sensors.SensorReader Check is measured temperature negative or positive
10-05-19 11:58:05 INFO Sensors.SensorReader Value is positive
10-05-19 11:58:05 INFO Sensors.SensorReader Read humidity readings
10-05-19 11:58:05 INFO Sensors.SensorReader Cast temperature and humidity readings to float
10-05-19 11:58:05 INFO Sensors.SensorReader Sensor value reading finished
10-05-19 11:58:05 WARNING Sensors.SensorReader Fahrenheits enabled in configurations. Converting sensor temperature reading to fahrenheits
10-05-19 11:58:05 INFO Utility.TemperatureConverter TemperatureConverter instantiated
10-05-19 11:58:05 INFO Utility.TemperatureConverter Converting temperature to fahrenheits
10-05-19 11:58:05 INFO Sensors.SensorReader Readings: Temperature: 98.6 , Humidity: 23.9. Store sensor readings for handling
10-05-19 11:58:05 INFO Sensors.SensorReader Temperature and humidity data from sensor Inside collected
10-05-19 11:58:05 INFO Sensors.SensorReader Checking when last mail regarding this sensor was sent out. Sensor=Inside
10-05-19 11:58:05 INFO Database.DbActionController getLastSensorMailSentTime
10-05-19 11:58:05 INFO Database.DbActions Executing Sql SELECT
10-05-19 11:58:05 INFO Database.DbActions Executing Sql SELECT finished
10-05-19 11:58:05 WARNING Sensors.SensorReader No entry for last mail sent
10-05-19 11:58:05 INFO Sensors.SensorReader Collecting previously measured values for sensor=Inside
10-05-19 11:58:05 INFO Database.DbActionController Start reading last sensor measurements
10-05-19 11:58:05 INFO Database.DbActions Executing Sql SELECT
10-05-19 11:58:05 INFO Database.DbActions Executing Sql SELECT finished
10-05-19 11:58:05 INFO Sensors.SensorReader Previously measured values collected
10-05-19 11:58:05 INFO Sensors.SensorReader Sensor readings collected
10-05-19 11:58:05 INFO Sensors.SensorDataHandler Successfully read: 1 sensors. Failed to read: 0 sensor(s)
10-05-19 11:58:05 INFO Sensors.SensorDataHandler Start persisting data for sensor Inside
10-05-19 11:58:05 INFO Database.DbActionController Starting to persist sensor readings to database
10-05-19 11:58:05 INFO Database.DbActions Executing Sql INSERT
10-05-19 11:58:05 INFO Database.DbActions Executing Sql INSERT finished
10-05-19 11:58:05 INFO Sensors.SensorDataHandler Data persisting finished for sensor Inside
10-05-19 11:58:05 INFO Sensors.SensorDataHandler Data persisted
10-05-19 11:58:05 INFO Sensors.SensorDataHandler Starting measurement comparison against set threshold for sensor Inside
10-05-19 11:58:05 INFO Sensors.SensorDataHandler Last measured temperature to compare to: 99.5 and Last measured humidity to compare to: 24.2
10-05-19 11:58:05 INFO Sensors.SensorDataHandler Execute measurement compare against set threshold
10-05-19 11:58:05 INFO Utility.MeasurementCompare Set sensor data to begin measurements
10-05-19 11:58:05 INFO Utility.MeasurementCompare Data set
10-05-19 11:58:05 INFO Utility.MeasurementCompare Comparing temperature change against set threshold
10-05-19 11:58:05 INFO Utility.MeasurementCompare Fahrenheits enabled in configurations
10-05-19 11:58:05 INFO Utility.MeasurementCompare Checking if previous temperature is available...
10-05-19 11:58:05 INFO Utility.MeasurementCompare Previous temperature is available, execute comparison
10-05-19 11:58:05 INFO Utility.MeasurementCompare Measured temperature = 98.6, previously measured temperature 99.5, temperature treshold 50.0
10-05-19 11:58:05 INFO Utility.MeasurementCompare Comparison done
10-05-19 11:58:05 INFO Utility.MeasurementCompare Comparing humidity change against set threshold
10-05-19 11:58:05 INFO Utility.MeasurementCompare Checking if previous humidity value is available...
10-05-19 11:58:05 INFO Utility.MeasurementCompare Previous humidity is available, execute comparison
10-05-19 11:58:05 INFO Utility.MeasurementCompare Measured humidity = 23.9, previously measured humidity 24.2, humidity treshold 50.0
10-05-19 11:58:05 INFO Utility.MeasurementCompare Comparison done
10-05-19 11:58:05 INFO Sensors.SensorDataHandler Threshold comparison done for sensor Inside
10-05-19 11:58:05 INFO Sensors.SensorDataHandler Perform delta check compare against previously measured results for sensor Inside
10-05-19 11:58:05 INFO Utility.MeasurementCompare Set sensor data to begin measurements
10-05-19 11:58:05 INFO Utility.MeasurementCompare Data set
10-05-19 11:58:05 INFO Utility.MeasurementCompare Comparing measured temperature against set limit
10-05-19 11:58:05 INFO Utility.MeasurementCompare Comparison done
10-05-19 11:58:05 INFO Utility.MeasurementCompare Comparing measured humidity against set limit
10-05-19 11:58:05 INFO Utility.MeasurementCompare Comparison done
10-05-19 11:58:05 INFO root Check if weekly averages need to be sended
10-05-19 11:58:05 INFO Configurations.ConfigHandler Get configuration for sending weekly average temperatures
10-05-19 11:58:05 INFO Configurations.ConfigAdapter Creating dictionary for backup dump configurations
10-05-19 11:58:05 INFO Configurations.ConfigAdapter Configuration dictionary created
10-05-19 11:58:05 INFO Configurations.ConfigHandler Check if weekly averages sending is enabled
10-05-19 11:58:05 INFO Configurations.ConfigHandler Yes
10-05-19 11:58:05 INFO Configurations.ConfigHandler Is it time to perform requested action
10-05-19 11:58:05 INFO Configurations.ConfigHandler No
10-05-19 11:58:05 INFO Configurations.ConfigHandler Get configuration for backup dump
10-05-19 11:58:05 INFO Configurations.ConfigAdapter Creating dictionary for backup dump configurations
10-05-19 11:58:05 INFO Configurations.ConfigAdapter Configuration dictionary created
10-05-19 11:58:05 INFO Configurations.ConfigHandler Check if dump is enabled
10-05-19 11:58:05 INFO Configurations.ConfigHandler Yes
10-05-19 11:58:05 INFO Configurations.ConfigHandler Is it time to perform requested action
10-05-19 11:58:05 INFO Configurations.ConfigHandler No
10-05-19 11:58:05 INFO root DHT22logger execution finished

10-05-19 11:59:01 INFO root DHT22logger execution started
10-05-19 11:59:01 INFO Configurations.ConfigHandler ConfigHandler instantiation started
10-05-19 11:59:01 INFO Configurations.ConfigHandler Instantiate ConfigReader
10-05-19 11:59:01 INFO Configurations.ConfigReader ConfigReader instantiation started
10-05-19 11:59:01 INFO Configurations.ConfigReader Loading configurations from config.json
10-05-19 11:59:01 INFO Configurations.ConfigReader ConfigReader instantiated
10-05-19 11:59:01 INFO Configurations.ConfigHandler Read configurations
10-05-19 11:59:01 INFO Configurations.ConfigHandler Configurations read succesfully
10-05-19 11:59:01 INFO Configurations.ConfigAdapter ConfigAdapter instantiation started
10-05-19 11:59:01 INFO Utility.TimeFormatHelper TimeFormat instantiation started
10-05-19 11:59:01 INFO Utility.TimeFormatHelper TimeFormat instantiated
10-05-19 11:59:01 INFO Configurations.ConfigAdapter ConfigAdapter instantiated
10-05-19 11:59:01 INFO Configurations.ConfigHandler ConfigHandler instantiated
10-05-19 11:59:01 INFO Configurations.ConfigHandler Get full configuration adaptation
10-05-19 11:59:01 INFO Configurations.ConfigAdapter Creating dictionary for full configurations
10-05-19 11:59:01 INFO Configurations.ConfigAdapter Configuration dictionary created
10-05-19 11:59:01 INFO Database.DbActionController DbController instantiation started
10-05-19 11:59:01 INFO Database.DbActions DBActions instantiation started
10-05-19 11:59:01 INFO Database.DbActions DBActions instantiated
10-05-19 11:59:01 INFO Database.DbActionController DbController instantiated
10-05-19 11:59:01 INFO Database.DbActions Executing Sql SELECT
10-05-19 11:59:02 INFO Database.DbActions Executing Sql SELECT finished
10-05-19 11:59:02 INFO Utility.MailSender MailSender instantiation started
10-05-19 11:59:02 INFO Utility.TimeFormatHelper TimeFormat instantiation started
10-05-19 11:59:02 INFO Utility.TimeFormatHelper TimeFormat instantiated
10-05-19 11:59:02 INFO Utility.MailSender MailSender instantiation finished
10-05-19 11:59:02 INFO Sensors.SensorDataHandler SensorDataHandler instantiation started
10-05-19 11:59:02 INFO Sensors.SensorReader SensorReader instantiation started
10-05-19 11:59:02 INFO Sensors.SensorReader SensorReader instantiated
10-05-19 11:59:02 INFO Utility.MeasurementCompare MeasurementCompare instantiation started
10-05-19 11:59:02 INFO Utility.MeasurementCompare Instantiation done
10-05-19 11:59:02 INFO Sensors.SensorDataHandler SensorDataHandler instantiated
10-05-19 11:59:02 INFO Sensors.SensorReader Starting to collect temperature and humidity data from the the sensors
10-05-19 11:59:02 INFO Sensors.SensorReader Collecting data for sensor: Inside
10-05-19 11:59:02 INFO Sensors.SensorReader Get readings for the sensor Inside
10-05-19 11:59:02 INFO Sensors.SensorReader Start reading values for sensor type 22 in gpio 18
10-05-19 11:59:03 INFO Sensors.SensorReader Values from sensor: Temp=36.9*  Humidity=23.8%

10-05-19 11:59:03 INFO Sensors.SensorReader Check is measured temperature negative or positive
10-05-19 11:59:03 INFO Sensors.SensorReader Value is positive
10-05-19 11:59:03 INFO Sensors.SensorReader Read humidity readings
10-05-19 11:59:03 INFO Sensors.SensorReader Cast temperature and humidity readings to float
10-05-19 11:59:03 INFO Sensors.SensorReader Sensor value reading finished
10-05-19 11:59:03 WARNING Sensors.SensorReader Fahrenheits enabled in configurations. Converting sensor temperature reading to fahrenheits
10-05-19 11:59:03 INFO Utility.TemperatureConverter TemperatureConverter instantiated
10-05-19 11:59:03 INFO Utility.TemperatureConverter Converting temperature to fahrenheits
10-05-19 11:59:03 INFO Sensors.SensorReader Readings: Temperature: 98.42 , Humidity: 23.8. Store sensor readings for handling
10-05-19 11:59:03 INFO Sensors.SensorReader Temperature and humidity data from sensor Inside collected
10-05-19 11:59:03 INFO Sensors.SensorReader Checking when last mail regarding this sensor was sent out. Sensor=Inside
10-05-19 11:59:03 INFO Database.DbActionController getLastSensorMailSentTime
10-05-19 11:59:03 INFO Database.DbActions Executing Sql SELECT
10-05-19 11:59:03 INFO Database.DbActions Executing Sql SELECT finished
10-05-19 11:59:03 WARNING Sensors.SensorReader No entry for last mail sent
10-05-19 11:59:03 INFO Sensors.SensorReader Collecting previously measured values for sensor=Inside
10-05-19 11:59:03 INFO Database.DbActionController Start reading last sensor measurements
10-05-19 11:59:03 INFO Database.DbActions Executing Sql SELECT
10-05-19 11:59:03 INFO Database.DbActions Executing Sql SELECT finished
10-05-19 11:59:03 INFO Sensors.SensorReader Previously measured values collected
10-05-19 11:59:03 INFO Sensors.SensorReader Collecting data for sensor: Inside
10-05-19 11:59:03 INFO Sensors.SensorReader Get readings for the sensor Inside
10-05-19 11:59:03 INFO Sensors.SensorReader Start reading values for sensor type 22 in gpio 18
10-05-19 11:59:05 INFO Sensors.SensorReader Values from sensor: Temp=37.6*  Humidity=23.8%

10-05-19 11:59:05 INFO Sensors.SensorReader Check is measured temperature negative or positive
10-05-19 11:59:05 INFO Sensors.SensorReader Value is positive
10-05-19 11:59:05 INFO Sensors.SensorReader Read humidity readings
10-05-19 11:59:05 INFO Sensors.SensorReader Cast temperature and humidity readings to float
10-05-19 11:59:05 INFO Sensors.SensorReader Sensor value reading finished
10-05-19 11:59:05 WARNING Sensors.SensorReader Fahrenheits enabled in configurations. Converting sensor temperature reading to fahrenheits
10-05-19 11:59:05 INFO Utility.TemperatureConverter TemperatureConverter instantiated
10-05-19 11:59:05 INFO Utility.TemperatureConverter Converting temperature to fahrenheits
10-05-19 11:59:05 INFO Sensors.SensorReader Readings: Temperature: 99.68 , Humidity: 23.8. Store sensor readings for handling
10-05-19 11:59:05 INFO Sensors.SensorReader Temperature and humidity data from sensor Inside collected
10-05-19 11:59:05 INFO Sensors.SensorReader Checking when last mail regarding this sensor was sent out. Sensor=Inside
10-05-19 11:59:05 INFO Database.DbActionController getLastSensorMailSentTime
10-05-19 11:59:05 INFO Database.DbActions Executing Sql SELECT
10-05-19 11:59:05 INFO Database.DbActions Executing Sql SELECT finished
10-05-19 11:59:05 WARNING Sensors.SensorReader No entry for last mail sent
10-05-19 11:59:05 INFO Sensors.SensorReader Collecting previously measured values for sensor=Inside
10-05-19 11:59:05 INFO Database.DbActionController Start reading last sensor measurements
10-05-19 11:59:05 INFO Database.DbActions Executing Sql SELECT
10-05-19 11:59:05 INFO Database.DbActions Executing Sql SELECT finished
10-05-19 11:59:05 INFO Sensors.SensorReader Previously measured values collected
10-05-19 11:59:05 INFO Sensors.SensorReader Sensor readings collected
10-05-19 11:59:05 INFO Sensors.SensorDataHandler Successfully read: 1 sensors. Failed to read: 0 sensor(s)
10-05-19 11:59:05 INFO Sensors.SensorDataHandler Start persisting data for sensor Inside
10-05-19 11:59:05 INFO Database.DbActionController Starting to persist sensor readings to database
10-05-19 11:59:05 INFO Database.DbActions Executing Sql INSERT
10-05-19 11:59:05 INFO Database.DbActions Executing Sql INSERT finished
10-05-19 11:59:05 INFO Sensors.SensorDataHandler Data persisting finished for sensor Inside
10-05-19 11:59:05 INFO Sensors.SensorDataHandler Data persisted
10-05-19 11:59:05 INFO Sensors.SensorDataHandler Starting measurement comparison against set threshold for sensor Inside
10-05-19 11:59:05 INFO Sensors.SensorDataHandler Last measured temperature to compare to: 98.6 and Last measured humidity to compare to: 23.9
10-05-19 11:59:05 INFO Sensors.SensorDataHandler Execute measurement compare against set threshold
10-05-19 11:59:05 INFO Utility.MeasurementCompare Set sensor data to begin measurements
10-05-19 11:59:05 INFO Utility.MeasurementCompare Data set
10-05-19 11:59:05 INFO Utility.MeasurementCompare Comparing temperature change against set threshold
10-05-19 11:59:05 INFO Utility.MeasurementCompare Fahrenheits enabled in configurations
10-05-19 11:59:05 INFO Utility.MeasurementCompare Checking if previous temperature is available...
10-05-19 11:59:05 INFO Utility.MeasurementCompare Previous temperature is available, execute comparison
10-05-19 11:59:05 INFO Utility.MeasurementCompare Measured temperature = 99.68, previously measured temperature 98.6, temperature treshold 50.0
10-05-19 11:59:05 INFO Utility.MeasurementCompare Comparison done
10-05-19 11:59:05 INFO Utility.MeasurementCompare Comparing humidity change against set threshold
10-05-19 11:59:05 INFO Utility.MeasurementCompare Checking if previous humidity value is available...
10-05-19 11:59:05 INFO Utility.MeasurementCompare Previous humidity is available, execute comparison
10-05-19 11:59:05 INFO Utility.MeasurementCompare Measured humidity = 23.8, previously measured humidity 23.9, humidity treshold 50.0
10-05-19 11:59:05 INFO Utility.MeasurementCompare Comparison done
10-05-19 11:59:05 INFO Sensors.SensorDataHandler Threshold comparison done for sensor Inside
10-05-19 11:59:05 INFO Sensors.SensorDataHandler Perform delta check compare against previously measured results for sensor Inside
10-05-19 11:59:05 INFO Utility.MeasurementCompare Set sensor data to begin measurements
10-05-19 11:59:05 INFO Utility.MeasurementCompare Data set
10-05-19 11:59:05 INFO Utility.MeasurementCompare Comparing measured temperature against set limit
10-05-19 11:59:05 INFO Utility.MeasurementCompare Comparison done
10-05-19 11:59:05 INFO Utility.MeasurementCompare Comparing measured humidity against set limit
10-05-19 11:59:05 INFO Utility.MeasurementCompare Comparison done
10-05-19 11:59:05 INFO root Check if weekly averages need to be sended
10-05-19 11:59:05 INFO Configurations.ConfigHandler Get configuration for sending weekly average temperatures
10-05-19 11:59:05 INFO Configurations.ConfigAdapter Creating dictionary for backup dump configurations
10-05-19 11:59:05 INFO Configurations.ConfigAdapter Configuration dictionary created
10-05-19 11:59:05 INFO Configurations.ConfigHandler Check if weekly averages sending is enabled
10-05-19 11:59:05 INFO Configurations.ConfigHandler Yes
10-05-19 11:59:05 INFO Configurations.ConfigHandler Is it time to perform requested action
10-05-19 11:59:05 INFO Configurations.ConfigHandler No
10-05-19 11:59:05 INFO Configurations.ConfigHandler Get configuration for backup dump
10-05-19 11:59:05 INFO Configurations.ConfigAdapter Creating dictionary for backup dump configurations
10-05-19 11:59:05 INFO Configurations.ConfigAdapter Configuration dictionary created
10-05-19 11:59:05 INFO Configurations.ConfigHandler Check if dump is enabled
10-05-19 11:59:05 INFO Configurations.ConfigHandler Yes
10-05-19 11:59:05 INFO Configurations.ConfigHandler Is it time to perform requested action
10-05-19 11:59:05 INFO Configurations.ConfigHandler No
10-05-19 11:59:05 INFO root DHT22logger execution finished

10-05-19 12:00:02 INFO root DHT22logger execution started
10-05-19 12:00:02 INFO Configurations.ConfigHandler ConfigHandler instantiation started
10-05-19 12:00:02 INFO Configurations.ConfigHandler Instantiate ConfigReader
10-05-19 12:00:02 INFO Configurations.ConfigReader ConfigReader instantiation started
10-05-19 12:00:02 INFO Configurations.ConfigReader Loading configurations from config.json
10-05-19 12:00:02 INFO Configurations.ConfigReader ConfigReader instantiated
10-05-19 12:00:02 INFO Configurations.ConfigHandler Read configurations
10-05-19 12:00:02 INFO Configurations.ConfigHandler Configurations read succesfully
10-05-19 12:00:02 INFO Configurations.ConfigAdapter ConfigAdapter instantiation started
10-05-19 12:00:02 INFO Utility.TimeFormatHelper TimeFormat instantiation started
10-05-19 12:00:02 INFO Utility.TimeFormatHelper TimeFormat instantiated
10-05-19 12:00:02 INFO Configurations.ConfigAdapter ConfigAdapter instantiated
10-05-19 12:00:02 INFO Configurations.ConfigHandler ConfigHandler instantiated
10-05-19 12:00:02 INFO Configurations.ConfigHandler Get full configuration adaptation
10-05-19 12:00:02 INFO Configurations.ConfigAdapter Creating dictionary for full configurations
10-05-19 12:00:02 INFO Configurations.ConfigAdapter Configuration dictionary created
10-05-19 12:00:02 INFO Database.DbActionController DbController instantiation started
10-05-19 12:00:02 INFO Database.DbActions DBActions instantiation started
10-05-19 12:00:02 INFO Database.DbActions DBActions instantiated
10-05-19 12:00:02 INFO Database.DbActionController DbController instantiated
10-05-19 12:00:02 INFO Database.DbActions Executing Sql SELECT
10-05-19 12:00:02 INFO Database.DbActions Executing Sql SELECT finished
10-05-19 12:00:02 INFO Utility.MailSender MailSender instantiation started
10-05-19 12:00:02 INFO Utility.TimeFormatHelper TimeFormat instantiation started
10-05-19 12:00:02 INFO Utility.TimeFormatHelper TimeFormat instantiated
10-05-19 12:00:02 INFO Utility.MailSender MailSender instantiation finished
10-05-19 12:00:02 INFO Sensors.SensorDataHandler SensorDataHandler instantiation started
10-05-19 12:00:02 INFO Sensors.SensorReader SensorReader instantiation started
10-05-19 12:00:02 INFO Sensors.SensorReader SensorReader instantiated
10-05-19 12:00:02 INFO Utility.MeasurementCompare MeasurementCompare instantiation started
10-05-19 12:00:02 INFO Utility.MeasurementCompare Instantiation done
10-05-19 12:00:02 INFO Sensors.SensorDataHandler SensorDataHandler instantiated
10-05-19 12:00:02 INFO Sensors.SensorReader Starting to collect temperature and humidity data from the the sensors
10-05-19 12:00:02 INFO Sensors.SensorReader Collecting data for sensor: Inside
10-05-19 12:00:02 INFO Sensors.SensorReader Get readings for the sensor Inside
10-05-19 12:00:02 INFO Sensors.SensorReader Start reading values for sensor type 22 in gpio 18
10-05-19 12:00:09 INFO Sensors.SensorReader Values from sensor: Temp=38.5*  Humidity=23.3%

10-05-19 12:00:09 INFO Sensors.SensorReader Check is measured temperature negative or positive
10-05-19 12:00:09 INFO Sensors.SensorReader Value is positive
10-05-19 12:00:09 INFO Sensors.SensorReader Read humidity readings
10-05-19 12:00:09 INFO Sensors.SensorReader Cast temperature and humidity readings to float
10-05-19 12:00:09 INFO Sensors.SensorReader Sensor value reading finished
10-05-19 12:00:09 WARNING Sensors.SensorReader Fahrenheits enabled in configurations. Converting sensor temperature reading to fahrenheits
10-05-19 12:00:09 INFO Utility.TemperatureConverter TemperatureConverter instantiated
10-05-19 12:00:09 INFO Utility.TemperatureConverter Converting temperature to fahrenheits
10-05-19 12:00:09 INFO Sensors.SensorReader Readings: Temperature: 101.3 , Humidity: 23.3. Store sensor readings for handling
10-05-19 12:00:09 INFO Sensors.SensorReader Temperature and humidity data from sensor Inside collected
10-05-19 12:00:09 INFO Sensors.SensorReader Checking when last mail regarding this sensor was sent out. Sensor=Inside
10-05-19 12:00:09 INFO Database.DbActionController getLastSensorMailSentTime
10-05-19 12:00:09 INFO Database.DbActions Executing Sql SELECT
10-05-19 12:00:09 INFO Database.DbActions Executing Sql SELECT finished
10-05-19 12:00:09 WARNING Sensors.SensorReader No entry for last mail sent
10-05-19 12:00:09 INFO Sensors.SensorReader Collecting previously measured values for sensor=Inside
10-05-19 12:00:09 INFO Database.DbActionController Start reading last sensor measurements
10-05-19 12:00:09 INFO Database.DbActions Executing Sql SELECT
10-05-19 12:00:09 INFO Database.DbActions Executing Sql SELECT finished
10-05-19 12:00:09 INFO Sensors.SensorReader Previously measured values collected
10-05-19 12:00:09 INFO Sensors.SensorReader Collecting data for sensor: Inside
10-05-19 12:00:09 INFO Sensors.SensorReader Get readings for the sensor Inside
10-05-19 12:00:09 INFO Sensors.SensorReader Start reading values for sensor type 22 in gpio 18
10-05-19 12:00:10 INFO Sensors.SensorReader Values from sensor: Temp=38.5*  Humidity=23.2%

10-05-19 12:00:10 INFO Sensors.SensorReader Check is measured temperature negative or positive
10-05-19 12:00:10 INFO Sensors.SensorReader Value is positive
10-05-19 12:00:10 INFO Sensors.SensorReader Read humidity readings
10-05-19 12:00:10 INFO Sensors.SensorReader Cast temperature and humidity readings to float
10-05-19 12:00:10 INFO Sensors.SensorReader Sensor value reading finished
10-05-19 12:00:10 WARNING Sensors.SensorReader Fahrenheits enabled in configurations. Converting sensor temperature reading to fahrenheits
10-05-19 12:00:10 INFO Utility.TemperatureConverter TemperatureConverter instantiated
10-05-19 12:00:10 INFO Utility.TemperatureConverter Converting temperature to fahrenheits
10-05-19 12:00:10 INFO Sensors.SensorReader Readings: Temperature: 101.3 , Humidity: 23.2. Store sensor readings for handling
10-05-19 12:00:10 INFO Sensors.SensorReader Temperature and humidity data from sensor Inside collected
10-05-19 12:00:10 INFO Sensors.SensorReader Checking when last mail regarding this sensor was sent out. Sensor=Inside
10-05-19 12:00:10 INFO Database.DbActionController getLastSensorMailSentTime
10-05-19 12:00:10 INFO Database.DbActions Executing Sql SELECT
10-05-19 12:00:10 INFO Database.DbActions Executing Sql SELECT finished
10-05-19 12:00:10 WARNING Sensors.SensorReader No entry for last mail sent
10-05-19 12:00:10 INFO Sensors.SensorReader Collecting previously measured values for sensor=Inside
10-05-19 12:00:10 INFO Database.DbActionController Start reading last sensor measurements
10-05-19 12:00:10 INFO Database.DbActions Executing Sql SELECT
10-05-19 12:00:10 INFO Database.DbActions Executing Sql SELECT finished
10-05-19 12:00:10 INFO Sensors.SensorReader Previously measured values collected
10-05-19 12:00:10 INFO Sensors.SensorReader Sensor readings collected
10-05-19 12:00:10 INFO Sensors.SensorDataHandler Successfully read: 1 sensors. Failed to read: 0 sensor(s)
10-05-19 12:00:10 INFO Sensors.SensorDataHandler Start persisting data for sensor Inside
10-05-19 12:00:10 INFO Database.DbActionController Starting to persist sensor readings to database
10-05-19 12:00:10 INFO Database.DbActions Executing Sql INSERT
10-05-19 12:00:10 INFO Database.DbActions Executing Sql INSERT finished
10-05-19 12:00:10 INFO Sensors.SensorDataHandler Data persisting finished for sensor Inside
10-05-19 12:00:10 INFO Sensors.SensorDataHandler Data persisted
10-05-19 12:00:10 INFO Sensors.SensorDataHandler Starting measurement comparison against set threshold for sensor Inside
10-05-19 12:00:10 INFO Sensors.SensorDataHandler Last measured temperature to compare to: 99.68 and Last measured humidity to compare to: 23.8
10-05-19 12:00:10 INFO Sensors.SensorDataHandler Execute measurement compare against set threshold
10-05-19 12:00:10 INFO Utility.MeasurementCompare Set sensor data to begin measurements
10-05-19 12:00:10 INFO Utility.MeasurementCompare Data set
10-05-19 12:00:10 INFO Utility.MeasurementCompare Comparing temperature change against set threshold
10-05-19 12:00:10 INFO Utility.MeasurementCompare Fahrenheits enabled in configurations
10-05-19 12:00:10 INFO Utility.MeasurementCompare Checking if previous temperature is available...
10-05-19 12:00:10 INFO Utility.MeasurementCompare Previous temperature is available, execute comparison
10-05-19 12:00:10 INFO Utility.MeasurementCompare Measured temperature = 101.3, previously measured temperature 99.68, temperature treshold 50.0
10-05-19 12:00:10 INFO Utility.MeasurementCompare Comparison done
10-05-19 12:00:10 INFO Utility.MeasurementCompare Comparing humidity change against set threshold
10-05-19 12:00:10 INFO Utility.MeasurementCompare Checking if previous humidity value is available...
10-05-19 12:00:10 INFO Utility.MeasurementCompare Previous humidity is available, execute comparison
10-05-19 12:00:10 INFO Utility.MeasurementCompare Measured humidity = 23.2, previously measured humidity 23.8, humidity treshold 50.0
10-05-19 12:00:10 INFO Utility.MeasurementCompare Comparison done
10-05-19 12:00:10 INFO Sensors.SensorDataHandler Threshold comparison done for sensor Inside
10-05-19 12:00:10 INFO Sensors.SensorDataHandler Perform delta check compare against previously measured results for sensor Inside
10-05-19 12:00:10 INFO Utility.MeasurementCompare Set sensor data to begin measurements
10-05-19 12:00:10 INFO Utility.MeasurementCompare Data set
10-05-19 12:00:10 INFO Utility.MeasurementCompare Comparing measured temperature against set limit
10-05-19 12:00:10 INFO Utility.MeasurementCompare Comparison done
10-05-19 12:00:10 INFO Utility.MeasurementCompare Comparing measured humidity against set limit
10-05-19 12:00:10 INFO Utility.MeasurementCompare Comparison done
10-05-19 12:00:10 INFO root Check if weekly averages need to be sended
10-05-19 12:00:10 INFO Configurations.ConfigHandler Get configuration for sending weekly average temperatures
10-05-19 12:00:10 INFO Configurations.ConfigAdapter Creating dictionary for backup dump configurations
10-05-19 12:00:10 INFO Configurations.ConfigAdapter Configuration dictionary created
10-05-19 12:00:10 INFO Configurations.ConfigHandler Check if weekly averages sending is enabled
10-05-19 12:00:10 INFO Configurations.ConfigHandler Yes
10-05-19 12:00:10 INFO Configurations.ConfigHandler Is it time to perform requested action
10-05-19 12:00:10 INFO Configurations.ConfigHandler No
10-05-19 12:00:10 INFO Configurations.ConfigHandler Get configuration for backup dump
10-05-19 12:00:10 INFO Configurations.ConfigAdapter Creating dictionary for backup dump configurations
10-05-19 12:00:10 INFO Configurations.ConfigAdapter Configuration dictionary created
10-05-19 12:00:10 INFO Configurations.ConfigHandler Check if dump is enabled
10-05-19 12:00:10 INFO Configurations.ConfigHandler Yes
10-05-19 12:00:10 INFO Configurations.ConfigHandler Is it time to perform requested action
10-05-19 12:00:10 INFO Configurations.ConfigHandler No
10-05-19 12:00:10 INFO root DHT22logger execution finished

10-05-19 12:01:02 INFO root DHT22logger execution started
10-05-19 12:01:02 INFO Configurations.ConfigHandler ConfigHandler instantiation started
10-05-19 12:01:02 INFO Configurations.ConfigHandler Instantiate ConfigReader
10-05-19 12:01:02 INFO Configurations.ConfigReader ConfigReader instantiation started
10-05-19 12:01:02 INFO Configurations.ConfigReader Loading configurations from config.json
10-05-19 12:01:02 INFO Configurations.ConfigReader ConfigReader instantiated
10-05-19 12:01:02 INFO Configurations.ConfigHandler Read configurations
10-05-19 12:01:02 INFO Configurations.ConfigHandler Configurations read succesfully
10-05-19 12:01:02 INFO Configurations.ConfigAdapter ConfigAdapter instantiation started
10-05-19 12:01:02 INFO Utility.TimeFormatHelper TimeFormat instantiation started
10-05-19 12:01:02 INFO Utility.TimeFormatHelper TimeFormat instantiated
10-05-19 12:01:02 INFO Configurations.ConfigAdapter ConfigAdapter instantiated
10-05-19 12:01:02 INFO Configurations.ConfigHandler ConfigHandler instantiated
10-05-19 12:01:02 INFO Configurations.ConfigHandler Get full configuration adaptation
10-05-19 12:01:02 INFO Configurations.ConfigAdapter Creating dictionary for full configurations
10-05-19 12:01:02 INFO Configurations.ConfigAdapter Configuration dictionary created
10-05-19 12:01:02 INFO Database.DbActionController DbController instantiation started
10-05-19 12:01:02 INFO Database.DbActions DBActions instantiation started
10-05-19 12:01:02 INFO Database.DbActions DBActions instantiated
10-05-19 12:01:02 INFO Database.DbActionController DbController instantiated
10-05-19 12:01:02 INFO Database.DbActions Executing Sql SELECT
10-05-19 12:01:02 INFO Database.DbActions Executing Sql SELECT finished
10-05-19 12:01:02 INFO Utility.MailSender MailSender instantiation started
10-05-19 12:01:02 INFO Utility.TimeFormatHelper TimeFormat instantiation started
10-05-19 12:01:02 INFO Utility.TimeFormatHelper TimeFormat instantiated
10-05-19 12:01:02 INFO Utility.MailSender MailSender instantiation finished
10-05-19 12:01:02 INFO Sensors.SensorDataHandler SensorDataHandler instantiation started
10-05-19 12:01:02 INFO Sensors.SensorReader SensorReader instantiation started
10-05-19 12:01:02 INFO Sensors.SensorReader SensorReader instantiated
10-05-19 12:01:02 INFO Utility.MeasurementCompare MeasurementCompare instantiation started
10-05-19 12:01:02 INFO Utility.MeasurementCompare Instantiation done
10-05-19 12:01:02 INFO Sensors.SensorDataHandler SensorDataHandler instantiated
10-05-19 12:01:02 INFO Sensors.SensorReader Starting to collect temperature and humidity data from the the sensors
10-05-19 12:01:02 INFO Sensors.SensorReader Collecting data for sensor: Inside
10-05-19 12:01:02 INFO Sensors.SensorReader Get readings for the sensor Inside
10-05-19 12:01:02 INFO Sensors.SensorReader Start reading values for sensor type 22 in gpio 18
10-05-19 12:01:06 INFO Sensors.SensorReader Values from sensor: Temp=38.0*  Humidity=21.4%

10-05-19 12:01:06 INFO Sensors.SensorReader Check is measured temperature negative or positive
10-05-19 12:01:06 INFO Sensors.SensorReader Value is positive
10-05-19 12:01:06 INFO Sensors.SensorReader Read humidity readings
10-05-19 12:01:06 INFO Sensors.SensorReader Cast temperature and humidity readings to float
10-05-19 12:01:06 INFO Sensors.SensorReader Sensor value reading finished
10-05-19 12:01:06 WARNING Sensors.SensorReader Fahrenheits enabled in configurations. Converting sensor temperature reading to fahrenheits
10-05-19 12:01:06 INFO Utility.TemperatureConverter TemperatureConverter instantiated
10-05-19 12:01:06 INFO Utility.TemperatureConverter Converting temperature to fahrenheits
10-05-19 12:01:06 INFO Sensors.SensorReader Readings: Temperature: 100.4 , Humidity: 21.4. Store sensor readings for handling
10-05-19 12:01:06 INFO Sensors.SensorReader Temperature and humidity data from sensor Inside collected
10-05-19 12:01:06 INFO Sensors.SensorReader Checking when last mail regarding this sensor was sent out. Sensor=Inside
10-05-19 12:01:06 INFO Database.DbActionController getLastSensorMailSentTime
10-05-19 12:01:06 INFO Database.DbActions Executing Sql SELECT
10-05-19 12:01:06 INFO Database.DbActions Executing Sql SELECT finished
10-05-19 12:01:06 WARNING Sensors.SensorReader No entry for last mail sent
10-05-19 12:01:06 INFO Sensors.SensorReader Collecting previously measured values for sensor=Inside
10-05-19 12:01:06 INFO Database.DbActionController Start reading last sensor measurements
10-05-19 12:01:06 INFO Database.DbActions Executing Sql SELECT
10-05-19 12:01:06 INFO Database.DbActions Executing Sql SELECT finished
10-05-19 12:01:06 INFO Sensors.SensorReader Previously measured values collected
10-05-19 12:01:06 INFO Sensors.SensorReader Collecting data for sensor: Inside
10-05-19 12:01:06 INFO Sensors.SensorReader Get readings for the sensor Inside
10-05-19 12:01:06 INFO Sensors.SensorReader Start reading values for sensor type 22 in gpio 18
10-05-19 12:01:11 INFO Sensors.SensorReader Values from sensor: Temp=37.9*  Humidity=21.5%

10-05-19 12:01:11 INFO Sensors.SensorReader Check is measured temperature negative or positive
10-05-19 12:01:11 INFO Sensors.SensorReader Value is positive
10-05-19 12:01:11 INFO Sensors.SensorReader Read humidity readings
10-05-19 12:01:11 INFO Sensors.SensorReader Cast temperature and humidity readings to float
10-05-19 12:01:11 INFO Sensors.SensorReader Sensor value reading finished
10-05-19 12:01:11 WARNING Sensors.SensorReader Fahrenheits enabled in configurations. Converting sensor temperature reading to fahrenheits
10-05-19 12:01:11 INFO Utility.TemperatureConverter TemperatureConverter instantiated
10-05-19 12:01:11 INFO Utility.TemperatureConverter Converting temperature to fahrenheits
10-05-19 12:01:11 INFO Sensors.SensorReader Readings: Temperature: 100.22 , Humidity: 21.5. Store sensor readings for handling
10-05-19 12:01:11 INFO Sensors.SensorReader Temperature and humidity data from sensor Inside collected
10-05-19 12:01:11 INFO Sensors.SensorReader Checking when last mail regarding this sensor was sent out. Sensor=Inside
10-05-19 12:01:11 INFO Database.DbActionController getLastSensorMailSentTime
10-05-19 12:01:11 INFO Database.DbActions Executing Sql SELECT
10-05-19 12:01:11 INFO Database.DbActions Executing Sql SELECT finished
10-05-19 12:01:11 WARNING Sensors.SensorReader No entry for last mail sent
10-05-19 12:01:11 INFO Sensors.SensorReader Collecting previously measured values for sensor=Inside
10-05-19 12:01:11 INFO Database.DbActionController Start reading last sensor measurements
10-05-19 12:01:11 INFO Database.DbActions Executing Sql SELECT
10-05-19 12:01:11 INFO Database.DbActions Executing Sql SELECT finished
10-05-19 12:01:11 INFO Sensors.SensorReader Previously measured values collected
10-05-19 12:01:11 INFO Sensors.SensorReader Sensor readings collected
10-05-19 12:01:11 INFO Sensors.SensorDataHandler Successfully read: 1 sensors. Failed to read: 0 sensor(s)
10-05-19 12:01:11 INFO Sensors.SensorDataHandler Start persisting data for sensor Inside
10-05-19 12:01:11 INFO Database.DbActionController Starting to persist sensor readings to database
10-05-19 12:01:11 INFO Database.DbActions Executing Sql INSERT
10-05-19 12:01:11 INFO Database.DbActions Executing Sql INSERT finished
10-05-19 12:01:11 INFO Sensors.SensorDataHandler Data persisting finished for sensor Inside
10-05-19 12:01:11 INFO Sensors.SensorDataHandler Data persisted
10-05-19 12:01:11 INFO Sensors.SensorDataHandler Starting measurement comparison against set threshold for sensor Inside
10-05-19 12:01:11 INFO Sensors.SensorDataHandler Last measured temperature to compare to: 101.3 and Last measured humidity to compare to: 23.2
10-05-19 12:01:11 INFO Sensors.SensorDataHandler Execute measurement compare against set threshold
10-05-19 12:01:11 INFO Utility.MeasurementCompare Set sensor data to begin measurements
10-05-19 12:01:11 INFO Utility.MeasurementCompare Data set
10-05-19 12:01:11 INFO Utility.MeasurementCompare Comparing temperature change against set threshold
10-05-19 12:01:11 INFO Utility.MeasurementCompare Fahrenheits enabled in configurations
10-05-19 12:01:11 INFO Utility.MeasurementCompare Checking if previous temperature is available...
10-05-19 12:01:11 INFO Utility.MeasurementCompare Previous temperature is available, execute comparison
10-05-19 12:01:11 INFO Utility.MeasurementCompare Measured temperature = 100.22, previously measured temperature 101.3, temperature treshold 50.0
10-05-19 12:01:11 INFO Utility.MeasurementCompare Comparison done
10-05-19 12:01:11 INFO Utility.MeasurementCompare Comparing humidity change against set threshold
10-05-19 12:01:11 INFO Utility.MeasurementCompare Checking if previous humidity value is available...
10-05-19 12:01:11 INFO Utility.MeasurementCompare Previous humidity is available, execute comparison
10-05-19 12:01:11 INFO Utility.MeasurementCompare Measured humidity = 21.5, previously measured humidity 23.2, humidity treshold 50.0
10-05-19 12:01:11 INFO Utility.MeasurementCompare Comparison done
10-05-19 12:01:11 INFO Sensors.SensorDataHandler Threshold comparison done for sensor Inside
10-05-19 12:01:11 INFO Sensors.SensorDataHandler Perform delta check compare against previously measured results for sensor Inside
10-05-19 12:01:11 INFO Utility.MeasurementCompare Set sensor data to begin measurements
10-05-19 12:01:11 INFO Utility.MeasurementCompare Data set
10-05-19 12:01:11 INFO Utility.MeasurementCompare Comparing measured temperature against set limit
10-05-19 12:01:11 INFO Utility.MeasurementCompare Comparison done
10-05-19 12:01:11 INFO Utility.MeasurementCompare Comparing measured humidity against set limit
10-05-19 12:01:11 INFO Utility.MeasurementCompare Comparison done
10-05-19 12:01:11 INFO root Check if weekly averages need to be sended
10-05-19 12:01:11 INFO Configurations.ConfigHandler Get configuration for sending weekly average temperatures
10-05-19 12:01:11 INFO Configurations.ConfigAdapter Creating dictionary for backup dump configurations
10-05-19 12:01:11 INFO Configurations.ConfigAdapter Configuration dictionary created
10-05-19 12:01:11 INFO Configurations.ConfigHandler Check if weekly averages sending is enabled
10-05-19 12:01:11 INFO Configurations.ConfigHandler Yes
10-05-19 12:01:11 INFO Configurations.ConfigHandler Is it time to perform requested action
10-05-19 12:01:11 INFO Configurations.ConfigHandler No
10-05-19 12:01:11 INFO Configurations.ConfigHandler Get configuration for backup dump
10-05-19 12:01:11 INFO Configurations.ConfigAdapter Creating dictionary for backup dump configurations
10-05-19 12:01:11 INFO Configurations.ConfigAdapter Configuration dictionary created
10-05-19 12:01:11 INFO Configurations.ConfigHandler Check if dump is enabled
10-05-19 12:01:11 INFO Configurations.ConfigHandler Yes
10-05-19 12:01:11 INFO Configurations.ConfigHandler Is it time to perform requested action
10-05-19 12:01:11 INFO Configurations.ConfigHandler No
10-05-19 12:01:11 INFO root DHT22logger execution finished

10-05-19 12:02:01 INFO root DHT22logger execution started
10-05-19 12:02:01 INFO Configurations.ConfigHandler ConfigHandler instantiation started
10-05-19 12:02:01 INFO Configurations.ConfigHandler Instantiate ConfigReader
10-05-19 12:02:01 INFO Configurations.ConfigReader ConfigReader instantiation started
10-05-19 12:02:01 INFO Configurations.ConfigReader Loading configurations from config.json
10-05-19 12:02:01 INFO Configurations.ConfigReader ConfigReader instantiated
10-05-19 12:02:01 INFO Configurations.ConfigHandler Read configurations
10-05-19 12:02:01 INFO Configurations.ConfigHandler Configurations read succesfully
10-05-19 12:02:01 INFO Configurations.ConfigAdapter ConfigAdapter instantiation started
10-05-19 12:02:01 INFO Utility.TimeFormatHelper TimeFormat instantiation started
10-05-19 12:02:01 INFO Utility.TimeFormatHelper TimeFormat instantiated
10-05-19 12:02:01 INFO Configurations.ConfigAdapter ConfigAdapter instantiated
10-05-19 12:02:01 INFO Configurations.ConfigHandler ConfigHandler instantiated
10-05-19 12:02:01 INFO Configurations.ConfigHandler Get full configuration adaptation
10-05-19 12:02:01 INFO Configurations.ConfigAdapter Creating dictionary for full configurations
10-05-19 12:02:01 INFO Configurations.ConfigAdapter Configuration dictionary created
10-05-19 12:02:01 INFO Database.DbActionController DbController instantiation started
10-05-19 12:02:01 INFO Database.DbActions DBActions instantiation started
10-05-19 12:02:01 INFO Database.DbActions DBActions instantiated
10-05-19 12:02:01 INFO Database.DbActionController DbController instantiated
10-05-19 12:02:01 INFO Database.DbActions Executing Sql SELECT
10-05-19 12:02:01 INFO Database.DbActions Executing Sql SELECT finished
10-05-19 12:02:01 INFO Utility.MailSender MailSender instantiation started
10-05-19 12:02:01 INFO Utility.TimeFormatHelper TimeFormat instantiation started
10-05-19 12:02:01 INFO Utility.TimeFormatHelper TimeFormat instantiated
10-05-19 12:02:01 INFO Utility.MailSender MailSender instantiation finished
10-05-19 12:02:01 INFO Sensors.SensorDataHandler SensorDataHandler instantiation started
10-05-19 12:02:01 INFO Sensors.SensorReader SensorReader instantiation started
10-05-19 12:02:01 INFO Sensors.SensorReader SensorReader instantiated
10-05-19 12:02:01 INFO Utility.MeasurementCompare MeasurementCompare instantiation started
10-05-19 12:02:01 INFO Utility.MeasurementCompare Instantiation done
10-05-19 12:02:01 INFO Sensors.SensorDataHandler SensorDataHandler instantiated
10-05-19 12:02:01 INFO Sensors.SensorReader Starting to collect temperature and humidity data from the the sensors
10-05-19 12:02:01 INFO Sensors.SensorReader Collecting data for sensor: Inside
10-05-19 12:02:01 INFO Sensors.SensorReader Get readings for the sensor Inside
10-05-19 12:02:01 INFO Sensors.SensorReader Start reading values for sensor type 22 in gpio 18
10-05-19 12:02:38 INFO Sensors.SensorReader Values from sensor: Temp=38.5*  Humidity=22.0%

10-05-19 12:02:38 INFO Sensors.SensorReader Check is measured temperature negative or positive
10-05-19 12:02:38 INFO Sensors.SensorReader Value is positive
10-05-19 12:02:38 INFO Sensors.SensorReader Read humidity readings
10-05-19 12:02:38 INFO Sensors.SensorReader Cast temperature and humidity readings to float
10-05-19 12:02:38 INFO Sensors.SensorReader Sensor value reading finished
10-05-19 12:02:38 WARNING Sensors.SensorReader Fahrenheits enabled in configurations. Converting sensor temperature reading to fahrenheits
10-05-19 12:02:38 INFO Utility.TemperatureConverter TemperatureConverter instantiated
10-05-19 12:02:38 INFO Utility.TemperatureConverter Converting temperature to fahrenheits
10-05-19 12:02:38 INFO Sensors.SensorReader Readings: Temperature: 101.3 , Humidity: 22.0. Store sensor readings for handling
10-05-19 12:02:38 INFO Sensors.SensorReader Temperature and humidity data from sensor Inside collected
10-05-19 12:02:38 INFO Sensors.SensorReader Checking when last mail regarding this sensor was sent out. Sensor=Inside
10-05-19 12:02:38 INFO Database.DbActionController getLastSensorMailSentTime
10-05-19 12:02:38 INFO Database.DbActions Executing Sql SELECT
10-05-19 12:02:38 INFO Database.DbActions Executing Sql SELECT finished
10-05-19 12:02:38 WARNING Sensors.SensorReader No entry for last mail sent
10-05-19 12:02:38 INFO Sensors.SensorReader Collecting previously measured values for sensor=Inside
10-05-19 12:02:38 INFO Database.DbActionController Start reading last sensor measurements
10-05-19 12:02:38 INFO Database.DbActions Executing Sql SELECT
10-05-19 12:02:38 INFO Database.DbActions Executing Sql SELECT finished
10-05-19 12:02:38 INFO Sensors.SensorReader Previously measured values collected
10-05-19 12:02:38 INFO Sensors.SensorReader Collecting data for sensor: Inside
10-05-19 12:02:38 INFO Sensors.SensorReader Get readings for the sensor Inside
10-05-19 12:02:38 INFO Sensors.SensorReader Start reading values for sensor type 22 in gpio 18
10-05-19 12:02:40 INFO Sensors.SensorReader Values from sensor: Temp=38.5*  Humidity=22.0%

10-05-19 12:02:40 INFO Sensors.SensorReader Check is measured temperature negative or positive
10-05-19 12:02:40 INFO Sensors.SensorReader Value is positive
10-05-19 12:02:40 INFO Sensors.SensorReader Read humidity readings
10-05-19 12:02:40 INFO Sensors.SensorReader Cast temperature and humidity readings to float
10-05-19 12:02:40 INFO Sensors.SensorReader Sensor value reading finished
10-05-19 12:02:40 WARNING Sensors.SensorReader Fahrenheits enabled in configurations. Converting sensor temperature reading to fahrenheits
10-05-19 12:02:40 INFO Utility.TemperatureConverter TemperatureConverter instantiated
10-05-19 12:02:40 INFO Utility.TemperatureConverter Converting temperature to fahrenheits
10-05-19 12:02:40 INFO Sensors.SensorReader Readings: Temperature: 101.3 , Humidity: 22.0. Store sensor readings for handling
10-05-19 12:02:40 INFO Sensors.SensorReader Temperature and humidity data from sensor Inside collected
10-05-19 12:02:40 INFO Sensors.SensorReader Checking when last mail regarding this sensor was sent out. Sensor=Inside
10-05-19 12:02:40 INFO Database.DbActionController getLastSensorMailSentTime
10-05-19 12:02:40 INFO Database.DbActions Executing Sql SELECT
10-05-19 12:02:40 INFO Database.DbActions Executing Sql SELECT finished
10-05-19 12:02:40 WARNING Sensors.SensorReader No entry for last mail sent
10-05-19 12:02:40 INFO Sensors.SensorReader Collecting previously measured values for sensor=Inside
10-05-19 12:02:40 INFO Database.DbActionController Start reading last sensor measurements
10-05-19 12:02:40 INFO Database.DbActions Executing Sql SELECT
10-05-19 12:02:40 INFO Database.DbActions Executing Sql SELECT finished
10-05-19 12:02:40 INFO Sensors.SensorReader Previously measured values collected
10-05-19 12:02:40 INFO Sensors.SensorReader Sensor readings collected
10-05-19 12:02:40 INFO Sensors.SensorDataHandler Successfully read: 1 sensors. Failed to read: 0 sensor(s)
10-05-19 12:02:40 INFO Sensors.SensorDataHandler Start persisting data for sensor Inside
10-05-19 12:02:40 INFO Database.DbActionController Starting to persist sensor readings to database
10-05-19 12:02:40 INFO Database.DbActions Executing Sql INSERT
10-05-19 12:02:40 INFO Database.DbActions Executing Sql INSERT finished
10-05-19 12:02:40 INFO Sensors.SensorDataHandler Data persisting finished for sensor Inside
10-05-19 12:02:40 INFO Sensors.SensorDataHandler Data persisted
10-05-19 12:02:40 INFO Sensors.SensorDataHandler Starting measurement comparison against set threshold for sensor Inside
10-05-19 12:02:40 INFO Sensors.SensorDataHandler Last measured temperature to compare to: 100.22 and Last measured humidity to compare to: 21.5
10-05-19 12:02:40 INFO Sensors.SensorDataHandler Execute measurement compare against set threshold
10-05-19 12:02:40 INFO Utility.MeasurementCompare Set sensor data to begin measurements
10-05-19 12:02:40 INFO Utility.MeasurementCompare Data set
10-05-19 12:02:40 INFO Utility.MeasurementCompare Comparing temperature change against set threshold
10-05-19 12:02:40 INFO Utility.MeasurementCompare Fahrenheits enabled in configurations
10-05-19 12:02:40 INFO Utility.MeasurementCompare Checking if previous temperature is available...
10-05-19 12:02:40 INFO Utility.MeasurementCompare Previous temperature is available, execute comparison
10-05-19 12:02:40 INFO Utility.MeasurementCompare Measured temperature = 101.3, previously measured temperature 100.22, temperature treshold 50.0
10-05-19 12:02:40 INFO Utility.MeasurementCompare Comparison done
10-05-19 12:02:40 INFO Utility.MeasurementCompare Comparing humidity change against set threshold
10-05-19 12:02:40 INFO Utility.MeasurementCompare Checking if previous humidity value is available...
10-05-19 12:02:40 INFO Utility.MeasurementCompare Previous humidity is available, execute comparison
10-05-19 12:02:40 INFO Utility.MeasurementCompare Measured humidity = 22.0, previously measured humidity 21.5, humidity treshold 50.0
10-05-19 12:02:40 INFO Utility.MeasurementCompare Comparison done
