10-05-19 12:07:03 INFO Sensors.SensorReader Readings: Temperature: 100.4 , Humidity: 21.3. Store sensor readings for handling
10-05-19 12:07:03 INFO Sensors.SensorReader Temperature and humidity data from sensor Inside collected
10-05-19 12:07:03 INFO Sensors.SensorReader Checking when last mail regarding this sensor was sent out. Sensor=Inside
10-05-19 12:07:03 INFO Database.DbActionController getLastSensorMailSentTime
10-05-19 12:07:03 INFO Database.DbActions Executing Sql SELECT
10-05-19 12:07:03 INFO Database.DbActions Executing Sql SELECT finished
10-05-19 12:07:03 WARNING Sensors.SensorReader No entry for last mail sent
10-05-19 12:07:03 INFO Sensors.SensorReader Collecting previously measured values for sensor=Inside
10-05-19 12:07:03 INFO Database.DbActionController Start reading last sensor measurements
10-05-19 12:07:03 INFO Database.DbActions Executing Sql SELECT
10-05-19 12:07:03 INFO Database.DbActions Executing Sql SELECT finished
10-05-19 12:07:03 INFO Sensors.SensorReader Previously measured values collected
10-05-19 12:07:03 INFO Sensors.SensorReader Collecting data for sensor: Inside
10-05-19 12:07:03 INFO Sensors.SensorReader Get readings for the sensor Inside
10-05-19 12:07:03 INFO Sensors.SensorReader Start reading values for sensor type 22 in gpio 18
10-05-19 12:07:05 INFO Sensors.SensorReader Values from sensor: Temp=37.8*  Humidity=22.2%

10-05-19 12:07:05 INFO Sensors.SensorReader Check is measured temperature negative or positive
10-05-19 12:07:05 INFO Sensors.SensorReader Value is positive
10-05-19 12:07:05 INFO Sensors.SensorReader Read humidity readings
10-05-19 12:07:05 INFO Sensors.SensorReader Cast temperature and humidity readings to float
10-05-19 12:07:05 INFO Sensors.SensorReader Sensor value reading finished
10-05-19 12:07:05 WARNING Sensors.SensorReader Fahrenheits enabled in configurations. Converting sensor temperature reading to fahrenheits
10-05-19 12:07:05 INFO Utility.TemperatureConverter TemperatureConverter instantiated
10-05-19 12:07:05 INFO Utility.TemperatureConverter Converting temperature to fahrenheits
10-05-19 12:07:05 INFO Sensors.SensorReader Readings: Temperature: 100.04 , Humidity: 22.2. Store sensor readings for handling
10-05-19 12:07:05 INFO Sensors.SensorReader Temperature and humidity data from sensor Inside collected
10-05-19 12:07:05 INFO Sensors.SensorReader Checking when last mail regarding this sensor was sent out. Sensor=Inside
10-05-19 12:07:05 INFO Database.DbActionController getLastSensorMailSentTime
10-05-19 12:07:05 INFO Database.DbActions Executing Sql SELECT
10-05-19 12:07:05 INFO Database.DbActions Executing Sql SELECT finished
10-05-19 12:07:05 WARNING Sensors.SensorReader No entry for last mail sent
10-05-19 12:07:05 INFO Sensors.SensorReader Collecting previously measured values for sensor=Inside
10-05-19 12:07:05 INFO Database.DbActionController Start reading last sensor measurements
10-05-19 12:07:05 INFO Database.DbActions Executing Sql SELECT
10-05-19 12:07:05 INFO Database.DbActions Executing Sql SELECT finished
10-05-19 12:07:05 INFO Sensors.SensorReader Previously measured values collected
10-05-19 12:07:05 INFO Sensors.SensorReader Sensor readings collected
10-05-19 12:07:05 INFO Sensors.SensorDataHandler Successfully read: 1 sensors. Failed to read: 0 sensor(s)
10-05-19 12:07:05 INFO Sensors.SensorDataHandler Start persisting data for sensor Inside
10-05-19 12:07:05 INFO Database.DbActionController Starting to persist sensor readings to database
10-05-19 12:07:05 INFO Database.DbActions Executing Sql INSERT
10-05-19 12:07:05 INFO Database.DbActions Executing Sql INSERT finished
10-05-19 12:07:05 INFO Sensors.SensorDataHandler Data persisting finished for sensor Inside
10-05-19 12:07:05 INFO Sensors.SensorDataHandler Data persisted
10-05-19 12:07:05 INFO Sensors.SensorDataHandler Starting measurement comparison against set threshold for sensor Inside
10-05-19 12:07:05 INFO Sensors.SensorDataHandler Last measured temperature to compare to: 100.4 and Last measured humidity to compare to: 21.3
10-05-19 12:07:05 INFO Sensors.SensorDataHandler Execute measurement compare against set threshold
10-05-19 12:07:05 INFO Utility.MeasurementCompare Set sensor data to begin measurements
10-05-19 12:07:05 INFO Utility.MeasurementCompare Data set
10-05-19 12:07:05 INFO Utility.MeasurementCompare Comparing temperature change against set threshold
10-05-19 12:07:05 INFO Utility.MeasurementCompare Fahrenheits enabled in configurations
10-05-19 12:07:05 INFO Utility.MeasurementCompare Checking if previous temperature is available...
10-05-19 12:07:05 INFO Utility.MeasurementCompare Previous temperature is available, execute comparison
10-05-19 12:07:05 INFO Utility.MeasurementCompare Measured temperature = 100.04, previously measured temperature 100.4, temperature treshold 50.0
10-05-19 12:07:05 INFO Utility.MeasurementCompare Comparison done
10-05-19 12:07:05 INFO Utility.MeasurementCompare Comparing humidity change against set threshold
10-05-19 12:07:05 INFO Utility.MeasurementCompare Checking if previous humidity value is available...
10-05-19 12:07:05 INFO Utility.MeasurementCompare Previous humidity is available, execute comparison
10-05-19 12:07:05 INFO Utility.MeasurementCompare Measured humidity = 22.2, previously measured humidity 21.3, humidity treshold 50.0
10-05-19 12:07:05 INFO Utility.MeasurementCompare Comparison done
10-05-19 12:07:05 INFO Sensors.SensorDataHandler Threshold comparison done for sensor Inside
10-05-19 12:07:05 INFO Sensors.SensorDataHandler Perform delta check compare against previously measured results for sensor Inside
10-05-19 12:07:05 INFO Utility.MeasurementCompare Set sensor data to begin measurements
10-05-19 12:07:05 INFO Utility.MeasurementCompare Data set
10-05-19 12:07:05 INFO Utility.MeasurementCompare Comparing measured temperature against set limit
10-05-19 12:07:05 INFO Utility.MeasurementCompare Comparison done
10-05-19 12:07:05 INFO Utility.MeasurementCompare Comparing measured humidity against set limit
10-05-19 12:07:05 INFO Utility.MeasurementCompare Comparison done
10-05-19 12:07:05 INFO root Check if weekly averages need to be sended
10-05-19 12:07:05 INFO Configurations.ConfigHandler Get configuration for sending weekly average temperatures
10-05-19 12:07:05 INFO Configurations.ConfigAdapter Creating dictionary for backup dump configurations
10-05-19 12:07:05 INFO Configurations.ConfigAdapter Configuration dictionary created
10-05-19 12:07:05 INFO Configurations.ConfigHandler Check if weekly averages sending is enabled
10-05-19 12:07:05 INFO Configurations.ConfigHandler Yes
10-05-19 12:07:05 INFO Configurations.ConfigHandler Is it time to perform requested action
10-05-19 12:07:05 INFO Configurations.ConfigHandler No
10-05-19 12:07:05 INFO Configurations.ConfigHandler Get configuration for backup dump
10-05-19 12:07:05 INFO Configurations.ConfigAdapter Creating dictionary for backup dump configurations
10-05-19 12:07:05 INFO Configurations.ConfigAdapter Configuration dictionary created
10-05-19 12:07:05 INFO Configurations.ConfigHandler Check if dump is enabled
10-05-19 12:07:05 INFO Configurations.ConfigHandler Yes
10-05-19 12:07:05 INFO Configurations.ConfigHandler Is it time to perform requested action
10-05-19 12:07:05 INFO Configurations.ConfigHandler No
10-05-19 12:07:05 INFO root DHT22logger execution finished

10-05-19 12:08:01 INFO root DHT22logger execution started
10-05-19 12:08:01 INFO Configurations.ConfigHandler ConfigHandler instantiation started
10-05-19 12:08:01 INFO Configurations.ConfigHandler Instantiate ConfigReader
10-05-19 12:08:01 INFO Configurations.ConfigReader ConfigReader instantiation started
10-05-19 12:08:01 INFO Configurations.ConfigReader Loading configurations from config.json
10-05-19 12:08:01 INFO Configurations.ConfigReader ConfigReader instantiated
10-05-19 12:08:01 INFO Configurations.ConfigHandler Read configurations
10-05-19 12:08:01 INFO Configurations.ConfigHandler Configurations read succesfully
10-05-19 12:08:01 INFO Configurations.ConfigAdapter ConfigAdapter instantiation started
10-05-19 12:08:01 INFO Utility.TimeFormatHelper TimeFormat instantiation started
10-05-19 12:08:01 INFO Utility.TimeFormatHelper TimeFormat instantiated
10-05-19 12:08:01 INFO Configurations.ConfigAdapter ConfigAdapter instantiated
10-05-19 12:08:01 INFO Configurations.ConfigHandler ConfigHandler instantiated
10-05-19 12:08:01 INFO Configurations.ConfigHandler Get full configuration adaptation
10-05-19 12:08:01 INFO Configurations.ConfigAdapter Creating dictionary for full configurations
10-05-19 12:08:01 INFO Configurations.ConfigAdapter Configuration dictionary created
10-05-19 12:08:01 INFO Database.DbActionController DbController instantiation started
10-05-19 12:08:01 INFO Database.DbActions DBActions instantiation started
10-05-19 12:08:01 INFO Database.DbActions DBActions instantiated
10-05-19 12:08:01 INFO Database.DbActionController DbController instantiated
10-05-19 12:08:01 INFO Database.DbActions Executing Sql SELECT
10-05-19 12:08:02 INFO Database.DbActions Executing Sql SELECT finished
10-05-19 12:08:02 INFO Utility.MailSender MailSender instantiation started
10-05-19 12:08:02 INFO Utility.TimeFormatHelper TimeFormat instantiation started
10-05-19 12:08:02 INFO Utility.TimeFormatHelper TimeFormat instantiated
10-05-19 12:08:02 INFO Utility.MailSender MailSender instantiation finished
10-05-19 12:08:02 INFO Sensors.SensorDataHandler SensorDataHandler instantiation started
10-05-19 12:08:02 INFO Sensors.SensorReader SensorReader instantiation started
10-05-19 12:08:02 INFO Sensors.SensorReader SensorReader instantiated
10-05-19 12:08:02 INFO Utility.MeasurementCompare MeasurementCompare instantiation started
10-05-19 12:08:02 INFO Utility.MeasurementCompare Instantiation done
10-05-19 12:08:02 INFO Sensors.SensorDataHandler SensorDataHandler instantiated
10-05-19 12:08:02 INFO Sensors.SensorReader Starting to collect temperature and humidity data from the the sensors
10-05-19 12:08:02 INFO Sensors.SensorReader Collecting data for sensor: Inside
10-05-19 12:08:02 INFO Sensors.SensorReader Get readings for the sensor Inside
10-05-19 12:08:02 INFO Sensors.SensorReader Start reading values for sensor type 22 in gpio 18
10-05-19 12:08:03 INFO Sensors.SensorReader Values from sensor: Temp=37.7*  Humidity=22.1%

10-05-19 12:08:03 INFO Sensors.SensorReader Check is measured temperature negative or positive
10-05-19 12:08:03 INFO Sensors.SensorReader Value is positive
10-05-19 12:08:03 INFO Sensors.SensorReader Read humidity readings
10-05-19 12:08:03 INFO Sensors.SensorReader Cast temperature and humidity readings to float
10-05-19 12:08:03 INFO Sensors.SensorReader Sensor value reading finished
10-05-19 12:08:03 WARNING Sensors.SensorReader Fahrenheits enabled in configurations. Converting sensor temperature reading to fahrenheits
10-05-19 12:08:03 INFO Utility.TemperatureConverter TemperatureConverter instantiated
10-05-19 12:08:03 INFO Utility.TemperatureConverter Converting temperature to fahrenheits
10-05-19 12:08:03 INFO Sensors.SensorReader Readings: Temperature: 99.86 , Humidity: 22.1. Store sensor readings for handling
10-05-19 12:08:03 INFO Sensors.SensorReader Temperature and humidity data from sensor Inside collected
10-05-19 12:08:03 INFO Sensors.SensorReader Checking when last mail regarding this sensor was sent out. Sensor=Inside
10-05-19 12:08:03 INFO Database.DbActionController getLastSensorMailSentTime
10-05-19 12:08:03 INFO Database.DbActions Executing Sql SELECT
10-05-19 12:08:03 INFO Database.DbActions Executing Sql SELECT finished
10-05-19 12:08:03 WARNING Sensors.SensorReader No entry for last mail sent
10-05-19 12:08:03 INFO Sensors.SensorReader Collecting previously measured values for sensor=Inside
10-05-19 12:08:03 INFO Database.DbActionController Start reading last sensor measurements
10-05-19 12:08:03 INFO Database.DbActions Executing Sql SELECT
10-05-19 12:08:03 INFO Database.DbActions Executing Sql SELECT finished
10-05-19 12:08:03 INFO Sensors.SensorReader Previously measured values collected
10-05-19 12:08:03 INFO Sensors.SensorReader Collecting data for sensor: Inside
10-05-19 12:08:03 INFO Sensors.SensorReader Get readings for the sensor Inside
10-05-19 12:08:03 INFO Sensors.SensorReader Start reading values for sensor type 22 in gpio 18
10-05-19 12:08:05 INFO Sensors.SensorReader Values from sensor: Temp=39.3*  Humidity=21.6%

10-05-19 12:08:05 INFO Sensors.SensorReader Check is measured temperature negative or positive
10-05-19 12:08:05 INFO Sensors.SensorReader Value is positive
10-05-19 12:08:05 INFO Sensors.SensorReader Read humidity readings
10-05-19 12:08:05 INFO Sensors.SensorReader Cast temperature and humidity readings to float
10-05-19 12:08:05 INFO Sensors.SensorReader Sensor value reading finished
10-05-19 12:08:05 WARNING Sensors.SensorReader Fahrenheits enabled in configurations. Converting sensor temperature reading to fahrenheits
10-05-19 12:08:05 INFO Utility.TemperatureConverter TemperatureConverter instantiated
10-05-19 12:08:05 INFO Utility.TemperatureConverter Converting temperature to fahrenheits
10-05-19 12:08:05 INFO Sensors.SensorReader Readings: Temperature: 102.74 , Humidity: 21.6. Store sensor readings for handling
10-05-19 12:08:05 INFO Sensors.SensorReader Temperature and humidity data from sensor Inside collected
10-05-19 12:08:05 INFO Sensors.SensorReader Checking when last mail regarding this sensor was sent out. Sensor=Inside
10-05-19 12:08:05 INFO Database.DbActionController getLastSensorMailSentTime
10-05-19 12:08:05 INFO Database.DbActions Executing Sql SELECT
10-05-19 12:08:05 INFO Database.DbActions Executing Sql SELECT finished
10-05-19 12:08:05 WARNING Sensors.SensorReader No entry for last mail sent
10-05-19 12:08:05 INFO Sensors.SensorReader Collecting previously measured values for sensor=Inside
10-05-19 12:08:05 INFO Database.DbActionController Start reading last sensor measurements
10-05-19 12:08:05 INFO Database.DbActions Executing Sql SELECT
10-05-19 12:08:05 INFO Database.DbActions Executing Sql SELECT finished
10-05-19 12:08:05 INFO Sensors.SensorReader Previously measured values collected
10-05-19 12:08:05 INFO Sensors.SensorReader Sensor readings collected
10-05-19 12:08:05 INFO Sensors.SensorDataHandler Successfully read: 1 sensors. Failed to read: 0 sensor(s)
10-05-19 12:08:05 INFO Sensors.SensorDataHandler Start persisting data for sensor Inside
10-05-19 12:08:05 INFO Database.DbActionController Starting to persist sensor readings to database
10-05-19 12:08:05 INFO Database.DbActions Executing Sql INSERT
10-05-19 12:08:05 INFO Database.DbActions Executing Sql INSERT finished
10-05-19 12:08:05 INFO Sensors.SensorDataHandler Data persisting finished for sensor Inside
10-05-19 12:08:05 INFO Sensors.SensorDataHandler Data persisted
10-05-19 12:08:05 INFO Sensors.SensorDataHandler Starting measurement comparison against set threshold for sensor Inside
10-05-19 12:08:05 INFO Sensors.SensorDataHandler Last measured temperature to compare to: 100.04 and Last measured humidity to compare to: 22.2
10-05-19 12:08:05 INFO Sensors.SensorDataHandler Execute measurement compare against set threshold
10-05-19 12:08:05 INFO Utility.MeasurementCompare Set sensor data to begin measurements
10-05-19 12:08:05 INFO Utility.MeasurementCompare Data set
10-05-19 12:08:05 INFO Utility.MeasurementCompare Comparing temperature change against set threshold
10-05-19 12:08:05 INFO Utility.MeasurementCompare Fahrenheits enabled in configurations
10-05-19 12:08:05 INFO Utility.MeasurementCompare Checking if previous temperature is available...
10-05-19 12:08:05 INFO Utility.MeasurementCompare Previous temperature is available, execute comparison
10-05-19 12:08:05 INFO Utility.MeasurementCompare Measured temperature = 102.74, previously measured temperature 100.04, temperature treshold 50.0
10-05-19 12:08:05 INFO Utility.MeasurementCompare Comparison done
10-05-19 12:08:05 INFO Utility.MeasurementCompare Comparing humidity change against set threshold
10-05-19 12:08:05 INFO Utility.MeasurementCompare Checking if previous humidity value is available...
10-05-19 12:08:05 INFO Utility.MeasurementCompare Previous humidity is available, execute comparison
10-05-19 12:08:05 INFO Utility.MeasurementCompare Measured humidity = 21.6, previously measured humidity 22.2, humidity treshold 50.0
10-05-19 12:08:05 INFO Utility.MeasurementCompare Comparison done
10-05-19 12:08:05 INFO Sensors.SensorDataHandler Threshold comparison done for sensor Inside
10-05-19 12:08:05 INFO Sensors.SensorDataHandler Perform delta check compare against previously measured results for sensor Inside
10-05-19 12:08:05 INFO Utility.MeasurementCompare Set sensor data to begin measurements
10-05-19 12:08:05 INFO Utility.MeasurementCompare Data set
10-05-19 12:08:05 INFO Utility.MeasurementCompare Comparing measured temperature against set limit
10-05-19 12:08:05 INFO Utility.MeasurementCompare Comparison done
10-05-19 12:08:05 INFO Utility.MeasurementCompare Comparing measured humidity against set limit
10-05-19 12:08:05 INFO Utility.MeasurementCompare Comparison done
10-05-19 12:08:05 INFO root Check if weekly averages need to be sended
10-05-19 12:08:05 INFO Configurations.ConfigHandler Get configuration for sending weekly average temperatures
10-05-19 12:08:05 INFO Configurations.ConfigAdapter Creating dictionary for backup dump configurations
10-05-19 12:08:05 INFO Configurations.ConfigAdapter Configuration dictionary created
10-05-19 12:08:05 INFO Configurations.ConfigHandler Check if weekly averages sending is enabled
10-05-19 12:08:05 INFO Configurations.ConfigHandler Yes
10-05-19 12:08:05 INFO Configurations.ConfigHandler Is it time to perform requested action
10-05-19 12:08:05 INFO Configurations.ConfigHandler No
10-05-19 12:08:05 INFO Configurations.ConfigHandler Get configuration for backup dump
10-05-19 12:08:05 INFO Configurations.ConfigAdapter Creating dictionary for backup dump configurations
10-05-19 12:08:05 INFO Configurations.ConfigAdapter Configuration dictionary created
10-05-19 12:08:05 INFO Configurations.ConfigHandler Check if dump is enabled
10-05-19 12:08:05 INFO Configurations.ConfigHandler Yes
10-05-19 12:08:05 INFO Configurations.ConfigHandler Is it time to perform requested action
10-05-19 12:08:05 INFO Configurations.ConfigHandler No
10-05-19 12:08:05 INFO root DHT22logger execution finished

10-05-19 12:09:02 INFO root DHT22logger execution started
10-05-19 12:09:02 INFO Configurations.ConfigHandler ConfigHandler instantiation started
10-05-19 12:09:02 INFO Configurations.ConfigHandler Instantiate ConfigReader
10-05-19 12:09:02 INFO Configurations.ConfigReader ConfigReader instantiation started
10-05-19 12:09:02 INFO Configurations.ConfigReader Loading configurations from config.json
10-05-19 12:09:02 INFO Configurations.ConfigReader ConfigReader instantiated
10-05-19 12:09:02 INFO Configurations.ConfigHandler Read configurations
10-05-19 12:09:02 INFO Configurations.ConfigHandler Configurations read succesfully
10-05-19 12:09:02 INFO Configurations.ConfigAdapter ConfigAdapter instantiation started
10-05-19 12:09:02 INFO Utility.TimeFormatHelper TimeFormat instantiation started
10-05-19 12:09:02 INFO Utility.TimeFormatHelper TimeFormat instantiated
10-05-19 12:09:02 INFO Configurations.ConfigAdapter ConfigAdapter instantiated
10-05-19 12:09:02 INFO Configurations.ConfigHandler ConfigHandler instantiated
10-05-19 12:09:02 INFO Configurations.ConfigHandler Get full configuration adaptation
10-05-19 12:09:02 INFO Configurations.ConfigAdapter Creating dictionary for full configurations
10-05-19 12:09:02 INFO Configurations.ConfigAdapter Configuration dictionary created
10-05-19 12:09:02 INFO Database.DbActionController DbController instantiation started
10-05-19 12:09:02 INFO Database.DbActions DBActions instantiation started
10-05-19 12:09:02 INFO Database.DbActions DBActions instantiated
10-05-19 12:09:02 INFO Database.DbActionController DbController instantiated
10-05-19 12:09:02 INFO Database.DbActions Executing Sql SELECT
10-05-19 12:09:02 INFO Database.DbActions Executing Sql SELECT finished
10-05-19 12:09:02 INFO Utility.MailSender MailSender instantiation started
10-05-19 12:09:02 INFO Utility.TimeFormatHelper TimeFormat instantiation started
10-05-19 12:09:02 INFO Utility.TimeFormatHelper TimeFormat instantiated
10-05-19 12:09:02 INFO Utility.MailSender MailSender instantiation finished
10-05-19 12:09:02 INFO Sensors.SensorDataHandler SensorDataHandler instantiation started
10-05-19 12:09:02 INFO Sensors.SensorReader SensorReader instantiation started
10-05-19 12:09:02 INFO Sensors.SensorReader SensorReader instantiated
10-05-19 12:09:02 INFO Utility.MeasurementCompare MeasurementCompare instantiation started
10-05-19 12:09:02 INFO Utility.MeasurementCompare Instantiation done
10-05-19 12:09:02 INFO Sensors.SensorDataHandler SensorDataHandler instantiated
10-05-19 12:09:02 INFO Sensors.SensorReader Starting to collect temperature and humidity data from the the sensors
10-05-19 12:09:02 INFO Sensors.SensorReader Collecting data for sensor: Inside
10-05-19 12:09:02 INFO Sensors.SensorReader Get readings for the sensor Inside
10-05-19 12:09:02 INFO Sensors.SensorReader Start reading values for sensor type 22 in gpio 18
10-05-19 12:09:03 INFO Sensors.SensorReader Values from sensor: Temp=39.3*  Humidity=21.6%

10-05-19 12:09:03 INFO Sensors.SensorReader Check is measured temperature negative or positive
10-05-19 12:09:03 INFO Sensors.SensorReader Value is positive
10-05-19 12:09:03 INFO Sensors.SensorReader Read humidity readings
10-05-19 12:09:03 INFO Sensors.SensorReader Cast temperature and humidity readings to float
10-05-19 12:09:03 INFO Sensors.SensorReader Sensor value reading finished
10-05-19 12:09:03 WARNING Sensors.SensorReader Fahrenheits enabled in configurations. Converting sensor temperature reading to fahrenheits
10-05-19 12:09:03 INFO Utility.TemperatureConverter TemperatureConverter instantiated
10-05-19 12:09:03 INFO Utility.TemperatureConverter Converting temperature to fahrenheits
10-05-19 12:09:03 INFO Sensors.SensorReader Readings: Temperature: 102.74 , Humidity: 21.6. Store sensor readings for handling
10-05-19 12:09:03 INFO Sensors.SensorReader Temperature and humidity data from sensor Inside collected
10-05-19 12:09:03 INFO Sensors.SensorReader Checking when last mail regarding this sensor was sent out. Sensor=Inside
10-05-19 12:09:03 INFO Database.DbActionController getLastSensorMailSentTime
10-05-19 12:09:03 INFO Database.DbActions Executing Sql SELECT
10-05-19 12:09:03 INFO Database.DbActions Executing Sql SELECT finished
10-05-19 12:09:03 WARNING Sensors.SensorReader No entry for last mail sent
10-05-19 12:09:03 INFO Sensors.SensorReader Collecting previously measured values for sensor=Inside
10-05-19 12:09:03 INFO Database.DbActionController Start reading last sensor measurements
10-05-19 12:09:03 INFO Database.DbActions Executing Sql SELECT
10-05-19 12:09:03 INFO Database.DbActions Executing Sql SELECT finished
10-05-19 12:09:03 INFO Sensors.SensorReader Previously measured values collected
10-05-19 12:09:03 INFO Sensors.SensorReader Collecting data for sensor: Inside
10-05-19 12:09:03 INFO Sensors.SensorReader Get readings for the sensor Inside
10-05-19 12:09:03 INFO Sensors.SensorReader Start reading values for sensor type 22 in gpio 18
10-05-19 12:09:05 INFO Sensors.SensorReader Values from sensor: Temp=40.9*  Humidity=20.6%

10-05-19 12:09:05 INFO Sensors.SensorReader Check is measured temperature negative or positive
10-05-19 12:09:05 INFO Sensors.SensorReader Value is positive
10-05-19 12:09:05 INFO Sensors.SensorReader Read humidity readings
10-05-19 12:09:05 INFO Sensors.SensorReader Cast temperature and humidity readings to float
10-05-19 12:09:05 INFO Sensors.SensorReader Sensor value reading finished
10-05-19 12:09:05 WARNING Sensors.SensorReader Fahrenheits enabled in configurations. Converting sensor temperature reading to fahrenheits
10-05-19 12:09:05 INFO Utility.TemperatureConverter TemperatureConverter instantiated
10-05-19 12:09:05 INFO Utility.TemperatureConverter Converting temperature to fahrenheits
10-05-19 12:09:05 INFO Sensors.SensorReader Readings: Temperature: 105.62 , Humidity: 20.6. Store sensor readings for handling
10-05-19 12:09:05 INFO Sensors.SensorReader Temperature and humidity data from sensor Inside collected
10-05-19 12:09:05 INFO Sensors.SensorReader Checking when last mail regarding this sensor was sent out. Sensor=Inside
10-05-19 12:09:05 INFO Database.DbActionController getLastSensorMailSentTime
10-05-19 12:09:05 INFO Database.DbActions Executing Sql SELECT
10-05-19 12:09:05 INFO Database.DbActions Executing Sql SELECT finished
10-05-19 12:09:05 WARNING Sensors.SensorReader No entry for last mail sent
10-05-19 12:09:05 INFO Sensors.SensorReader Collecting previously measured values for sensor=Inside
10-05-19 12:09:05 INFO Database.DbActionController Start reading last sensor measurements
10-05-19 12:09:05 INFO Database.DbActions Executing Sql SELECT
10-05-19 12:09:05 INFO Database.DbActions Executing Sql SELECT finished
10-05-19 12:09:05 INFO Sensors.SensorReader Previously measured values collected
10-05-19 12:09:05 INFO Sensors.SensorReader Sensor readings collected
10-05-19 12:09:05 INFO Sensors.SensorDataHandler Successfully read: 1 sensors. Failed to read: 0 sensor(s)
10-05-19 12:09:05 INFO Sensors.SensorDataHandler Start persisting data for sensor Inside
10-05-19 12:09:05 INFO Database.DbActionController Starting to persist sensor readings to database
10-05-19 12:09:05 INFO Database.DbActions Executing Sql INSERT
10-05-19 12:09:05 INFO Database.DbActions Executing Sql INSERT finished
10-05-19 12:09:05 INFO Sensors.SensorDataHandler Data persisting finished for sensor Inside
10-05-19 12:09:05 INFO Sensors.SensorDataHandler Data persisted
10-05-19 12:09:05 INFO Sensors.SensorDataHandler Starting measurement comparison against set threshold for sensor Inside
10-05-19 12:09:05 INFO Sensors.SensorDataHandler Last measured temperature to compare to: 102.74 and Last measured humidity to compare to: 21.6
10-05-19 12:09:05 INFO Sensors.SensorDataHandler Execute measurement compare against set threshold
10-05-19 12:09:05 INFO Utility.MeasurementCompare Set sensor data to begin measurements
10-05-19 12:09:05 INFO Utility.MeasurementCompare Data set
10-05-19 12:09:05 INFO Utility.MeasurementCompare Comparing temperature change against set threshold
10-05-19 12:09:05 INFO Utility.MeasurementCompare Fahrenheits enabled in configurations
10-05-19 12:09:05 INFO Utility.MeasurementCompare Checking if previous temperature is available...
10-05-19 12:09:05 INFO Utility.MeasurementCompare Previous temperature is available, execute comparison
10-05-19 12:09:05 INFO Utility.MeasurementCompare Measured temperature = 105.62, previously measured temperature 102.74, temperature treshold 50.0
10-05-19 12:09:05 INFO Utility.MeasurementCompare Comparison done
10-05-19 12:09:05 INFO Utility.MeasurementCompare Comparing humidity change against set threshold
10-05-19 12:09:05 INFO Utility.MeasurementCompare Checking if previous humidity value is available...
10-05-19 12:09:05 INFO Utility.MeasurementCompare Previous humidity is available, execute comparison
10-05-19 12:09:05 INFO Utility.MeasurementCompare Measured humidity = 20.6, previously measured humidity 21.6, humidity treshold 50.0
10-05-19 12:09:05 INFO Utility.MeasurementCompare Comparison done
10-05-19 12:09:05 INFO Sensors.SensorDataHandler Threshold comparison done for sensor Inside
10-05-19 12:09:05 INFO Sensors.SensorDataHandler Perform delta check compare against previously measured results for sensor Inside
10-05-19 12:09:05 INFO Utility.MeasurementCompare Set sensor data to begin measurements
10-05-19 12:09:05 INFO Utility.MeasurementCompare Data set
10-05-19 12:09:05 INFO Utility.MeasurementCompare Comparing measured temperature against set limit
10-05-19 12:09:05 INFO Utility.MeasurementCompare Comparison done
10-05-19 12:09:05 INFO Utility.MeasurementCompare Comparing measured humidity against set limit
10-05-19 12:09:05 INFO Utility.MeasurementCompare Comparison done
10-05-19 12:09:05 INFO root Check if weekly averages need to be sended
10-05-19 12:09:05 INFO Configurations.ConfigHandler Get configuration for sending weekly average temperatures
10-05-19 12:09:05 INFO Configurations.ConfigAdapter Creating dictionary for backup dump configurations
10-05-19 12:09:05 INFO Configurations.ConfigAdapter Configuration dictionary created
10-05-19 12:09:05 INFO Configurations.ConfigHandler Check if weekly averages sending is enabled
10-05-19 12:09:05 INFO Configurations.ConfigHandler Yes
10-05-19 12:09:05 INFO Configurations.ConfigHandler Is it time to perform requested action
10-05-19 12:09:05 INFO Configurations.ConfigHandler No
10-05-19 12:09:05 INFO Configurations.ConfigHandler Get configuration for backup dump
10-05-19 12:09:05 INFO Configurations.ConfigAdapter Creating dictionary for backup dump configurations
10-05-19 12:09:05 INFO Configurations.ConfigAdapter Configuration dictionary created
10-05-19 12:09:05 INFO Configurations.ConfigHandler Check if dump is enabled
10-05-19 12:09:05 INFO Configurations.ConfigHandler Yes
10-05-19 12:09:05 INFO Configurations.ConfigHandler Is it time to perform requested action
10-05-19 12:09:05 INFO Configurations.ConfigHandler No
10-05-19 12:09:05 INFO root DHT22logger execution finished

10-05-19 12:10:02 INFO root DHT22logger execution started
10-05-19 12:10:02 INFO Configurations.ConfigHandler ConfigHandler instantiation started
10-05-19 12:10:02 INFO Configurations.ConfigHandler Instantiate ConfigReader
10-05-19 12:10:02 INFO Configurations.ConfigReader ConfigReader instantiation started
10-05-19 12:10:02 INFO Configurations.ConfigReader Loading configurations from config.json
10-05-19 12:10:02 INFO Configurations.ConfigReader ConfigReader instantiated
10-05-19 12:10:02 INFO Configurations.ConfigHandler Read configurations
10-05-19 12:10:02 INFO Configurations.ConfigHandler Configurations read succesfully
10-05-19 12:10:02 INFO Configurations.ConfigAdapter ConfigAdapter instantiation started
10-05-19 12:10:02 INFO Utility.TimeFormatHelper TimeFormat instantiation started
10-05-19 12:10:02 INFO Utility.TimeFormatHelper TimeFormat instantiated
10-05-19 12:10:02 INFO Configurations.ConfigAdapter ConfigAdapter instantiated
10-05-19 12:10:02 INFO Configurations.ConfigHandler ConfigHandler instantiated
10-05-19 12:10:02 INFO Configurations.ConfigHandler Get full configuration adaptation
10-05-19 12:10:02 INFO Configurations.ConfigAdapter Creating dictionary for full configurations
10-05-19 12:10:02 INFO Configurations.ConfigAdapter Configuration dictionary created
10-05-19 12:10:02 INFO Database.DbActionController DbController instantiation started
10-05-19 12:10:02 INFO Database.DbActions DBActions instantiation started
10-05-19 12:10:02 INFO Database.DbActions DBActions instantiated
10-05-19 12:10:02 INFO Database.DbActionController DbController instantiated
10-05-19 12:10:02 INFO Database.DbActions Executing Sql SELECT
10-05-19 12:10:02 INFO Database.DbActions Executing Sql SELECT finished
10-05-19 12:10:02 INFO Utility.MailSender MailSender instantiation started
10-05-19 12:10:02 INFO Utility.TimeFormatHelper TimeFormat instantiation started
10-05-19 12:10:02 INFO Utility.TimeFormatHelper TimeFormat instantiated
10-05-19 12:10:02 INFO Utility.MailSender MailSender instantiation finished
10-05-19 12:10:02 INFO Sensors.SensorDataHandler SensorDataHandler instantiation started
10-05-19 12:10:02 INFO Sensors.SensorReader SensorReader instantiation started
10-05-19 12:10:02 INFO Sensors.SensorReader SensorReader instantiated
10-05-19 12:10:02 INFO Utility.MeasurementCompare MeasurementCompare instantiation started
10-05-19 12:10:02 INFO Utility.MeasurementCompare Instantiation done
10-05-19 12:10:02 INFO Sensors.SensorDataHandler SensorDataHandler instantiated
10-05-19 12:10:02 INFO Sensors.SensorReader Starting to collect temperature and humidity data from the the sensors
10-05-19 12:10:02 INFO Sensors.SensorReader Collecting data for sensor: Inside
10-05-19 12:10:02 INFO Sensors.SensorReader Get readings for the sensor Inside
10-05-19 12:10:02 INFO Sensors.SensorReader Start reading values for sensor type 22 in gpio 18
10-05-19 12:10:21 INFO Sensors.SensorReader Values from sensor: Temp=42.2*  Humidity=19.4%

10-05-19 12:10:21 INFO Sensors.SensorReader Check is measured temperature negative or positive
10-05-19 12:10:21 INFO Sensors.SensorReader Value is positive
10-05-19 12:10:21 INFO Sensors.SensorReader Read humidity readings
10-05-19 12:10:21 WARNING Sensors.SensorReader Humidity data too low
10-05-19 12:10:26 ERROR Sensors.SensorReader Failed to get readings for sensor: Inside
Traceback (most recent call last):
  File "/home/pi/185/src/logger/Sensors/SensorReader.py", line 59, in getSensorReadings
    temperature,humidity = self._getSensorReadings(sensorType,gpio)
  File "/home/pi/185/src/logger/Sensors/SensorReader.py", line 185, in _getSensorReadings
    temperature,humidity = self.sensorReader._getSensorReadings(sensorType,gpio)
AttributeError: SensorReader instance has no attribute 'sensorReader'
10-05-19 12:10:26 INFO Sensors.SensorReader Collecting data for sensor: Inside
10-05-19 12:10:26 INFO Sensors.SensorReader Get readings for the sensor Inside
10-05-19 12:10:26 INFO Sensors.SensorReader Start reading values for sensor type 22 in gpio 18
10-05-19 12:10:28 INFO Sensors.SensorReader Values from sensor: Temp=42.2*  Humidity=19.4%

10-05-19 12:10:28 INFO Sensors.SensorReader Check is measured temperature negative or positive
10-05-19 12:10:28 INFO Sensors.SensorReader Value is positive
10-05-19 12:10:28 INFO Sensors.SensorReader Read humidity readings
10-05-19 12:10:28 WARNING Sensors.SensorReader Humidity data too low
10-05-19 12:10:33 ERROR Sensors.SensorReader Failed to get readings for sensor: Inside
Traceback (most recent call last):
  File "/home/pi/185/src/logger/Sensors/SensorReader.py", line 59, in getSensorReadings
    temperature,humidity = self._getSensorReadings(sensorType,gpio)
  File "/home/pi/185/src/logger/Sensors/SensorReader.py", line 185, in _getSensorReadings
    temperature,humidity = self.sensorReader._getSensorReadings(sensorType,gpio)
AttributeError: SensorReader instance has no attribute 'sensorReader'
10-05-19 12:10:33 INFO Sensors.SensorReader Sensor readings collected
10-05-19 12:10:33 INFO Sensors.SensorDataHandler Successfully read: 0 sensors. Failed to read: 2 sensor(s)
10-05-19 12:10:33 ERROR Sensors.SensorDataHandler Failed to get readings from any of the sensors. Execution terminated
10-05-19 12:10:33 INFO Sensors.SensorDataHandler Send warning to indicate that none of the sensors provided data
10-05-19 12:10:33 INFO Utility.MailSender sendWarningEmail called
10-05-19 12:10:33 INFO Utility.MailSender _sendMail called. Sending mail...
10-05-19 12:10:35 INFO Utility.MailSender Mail sent
10-05-19 12:10:35 WARNING Sensors.SensorDataHandler Warning mail sent, no measurement values to continue with...terminate
10-05-19 12:11:01 INFO root DHT22logger execution started
10-05-19 12:11:01 INFO Configurations.ConfigHandler ConfigHandler instantiation started
10-05-19 12:11:01 INFO Configurations.ConfigHandler Instantiate ConfigReader
10-05-19 12:11:01 INFO Configurations.ConfigReader ConfigReader instantiation started
10-05-19 12:11:01 INFO Configurations.ConfigReader Loading configurations from config.json
10-05-19 12:11:01 INFO Configurations.ConfigReader ConfigReader instantiated
10-05-19 12:11:01 INFO Configurations.ConfigHandler Read configurations
10-05-19 12:11:01 INFO Configurations.ConfigHandler Configurations read succesfully
10-05-19 12:11:01 INFO Configurations.ConfigAdapter ConfigAdapter instantiation started
10-05-19 12:11:01 INFO Utility.TimeFormatHelper TimeFormat instantiation started
10-05-19 12:11:01 INFO Utility.TimeFormatHelper TimeFormat instantiated
10-05-19 12:11:01 INFO Configurations.ConfigAdapter ConfigAdapter instantiated
10-05-19 12:11:01 INFO Configurations.ConfigHandler ConfigHandler instantiated
10-05-19 12:11:01 INFO Configurations.ConfigHandler Get full configuration adaptation
10-05-19 12:11:01 INFO Configurations.ConfigAdapter Creating dictionary for full configurations
10-05-19 12:11:01 INFO Configurations.ConfigAdapter Configuration dictionary created
10-05-19 12:11:01 INFO Database.DbActionController DbController instantiation started
10-05-19 12:11:01 INFO Database.DbActions DBActions instantiation started
10-05-19 12:11:01 INFO Database.DbActions DBActions instantiated
10-05-19 12:11:01 INFO Database.DbActionController DbController instantiated
10-05-19 12:11:01 INFO Database.DbActions Executing Sql SELECT
10-05-19 12:11:01 INFO Database.DbActions Executing Sql SELECT finished
10-05-19 12:11:01 INFO Utility.MailSender MailSender instantiation started
10-05-19 12:11:01 INFO Utility.TimeFormatHelper TimeFormat instantiation started
10-05-19 12:11:01 INFO Utility.TimeFormatHelper TimeFormat instantiated
10-05-19 12:11:01 INFO Utility.MailSender MailSender instantiation finished
10-05-19 12:11:01 INFO Sensors.SensorDataHandler SensorDataHandler instantiation started
10-05-19 12:11:01 INFO Sensors.SensorReader SensorReader instantiation started
10-05-19 12:11:01 INFO Sensors.SensorReader SensorReader instantiated
10-05-19 12:11:01 INFO Utility.MeasurementCompare MeasurementCompare instantiation started
10-05-19 12:11:01 INFO Utility.MeasurementCompare Instantiation done
10-05-19 12:11:01 INFO Sensors.SensorDataHandler SensorDataHandler instantiated
10-05-19 12:11:01 INFO Sensors.SensorReader Starting to collect temperature and humidity data from the the sensors
10-05-19 12:11:01 INFO Sensors.SensorReader Collecting data for sensor: Inside
10-05-19 12:11:01 INFO Sensors.SensorReader Get readings for the sensor Inside
10-05-19 12:11:01 INFO Sensors.SensorReader Start reading values for sensor type 22 in gpio 18
10-05-19 12:11:03 INFO Sensors.SensorReader Values from sensor: Temp=42.4*  Humidity=19.2%

10-05-19 12:11:03 INFO Sensors.SensorReader Check is measured temperature negative or positive
10-05-19 12:11:03 INFO Sensors.SensorReader Value is positive
10-05-19 12:11:03 INFO Sensors.SensorReader Read humidity readings
10-05-19 12:11:03 WARNING Sensors.SensorReader Humidity data too low
10-05-19 12:11:08 ERROR Sensors.SensorReader Failed to get readings for sensor: Inside
Traceback (most recent call last):
  File "/home/pi/185/src/logger/Sensors/SensorReader.py", line 59, in getSensorReadings
    temperature,humidity = self._getSensorReadings(sensorType,gpio)
  File "/home/pi/185/src/logger/Sensors/SensorReader.py", line 185, in _getSensorReadings
    temperature,humidity = self.sensorReader._getSensorReadings(sensorType,gpio)
AttributeError: SensorReader instance has no attribute 'sensorReader'
10-05-19 12:11:08 INFO Sensors.SensorReader Collecting data for sensor: Inside
10-05-19 12:11:08 INFO Sensors.SensorReader Get readings for the sensor Inside
10-05-19 12:11:08 INFO Sensors.SensorReader Start reading values for sensor type 22 in gpio 18
10-05-19 12:11:10 INFO Sensors.SensorReader Values from sensor: Temp=42.5*  Humidity=18.9%

10-05-19 12:11:10 INFO Sensors.SensorReader Check is measured temperature negative or positive
10-05-19 12:11:10 INFO Sensors.SensorReader Value is positive
10-05-19 12:11:10 INFO Sensors.SensorReader Read humidity readings
10-05-19 12:11:10 WARNING Sensors.SensorReader Humidity data too low
10-05-19 12:11:15 ERROR Sensors.SensorReader Failed to get readings for sensor: Inside
Traceback (most recent call last):
  File "/home/pi/185/src/logger/Sensors/SensorReader.py", line 59, in getSensorReadings
    temperature,humidity = self._getSensorReadings(sensorType,gpio)
  File "/home/pi/185/src/logger/Sensors/SensorReader.py", line 185, in _getSensorReadings
    temperature,humidity = self.sensorReader._getSensorReadings(sensorType,gpio)
AttributeError: SensorReader instance has no attribute 'sensorReader'
10-05-19 12:11:15 INFO Sensors.SensorReader Sensor readings collected
10-05-19 12:11:15 INFO Sensors.SensorDataHandler Successfully read: 0 sensors. Failed to read: 2 sensor(s)
10-05-19 12:11:15 ERROR Sensors.SensorDataHandler Failed to get readings from any of the sensors. Execution terminated
10-05-19 12:11:15 INFO Sensors.SensorDataHandler Send warning to indicate that none of the sensors provided data
10-05-19 12:11:15 INFO Utility.MailSender sendWarningEmail called
10-05-19 12:11:15 INFO Utility.MailSender _sendMail called. Sending mail...
10-05-19 12:11:16 INFO Utility.MailSender Mail sent
10-05-19 12:11:16 WARNING Sensors.SensorDataHandler Warning mail sent, no measurement values to continue with...terminate
10-05-19 12:12:02 INFO root DHT22logger execution started
10-05-19 12:12:02 INFO Configurations.ConfigHandler ConfigHandler instantiation started
10-05-19 12:12:02 INFO Configurations.ConfigHandler Instantiate ConfigReader
10-05-19 12:12:02 INFO Configurations.ConfigReader ConfigReader instantiation started
10-05-19 12:12:02 INFO Configurations.ConfigReader Loading configurations from config.json
10-05-19 12:12:02 INFO Configurations.ConfigReader ConfigReader instantiated
10-05-19 12:12:02 INFO Configurations.ConfigHandler Read configurations
10-05-19 12:12:02 INFO Configurations.ConfigHandler Configurations read succesfully
10-05-19 12:12:02 INFO Configurations.ConfigAdapter ConfigAdapter instantiation started
10-05-19 12:12:02 INFO Utility.TimeFormatHelper TimeFormat instantiation started
10-05-19 12:12:02 INFO Utility.TimeFormatHelper TimeFormat instantiated
10-05-19 12:12:02 INFO Configurations.ConfigAdapter ConfigAdapter instantiated
10-05-19 12:12:02 INFO Configurations.ConfigHandler ConfigHandler instantiated
10-05-19 12:12:02 INFO Configurations.ConfigHandler Get full configuration adaptation
10-05-19 12:12:02 INFO Configurations.ConfigAdapter Creating dictionary for full configurations
10-05-19 12:12:02 INFO Configurations.ConfigAdapter Configuration dictionary created
10-05-19 12:12:02 INFO Database.DbActionController DbController instantiation started
10-05-19 12:12:02 INFO Database.DbActions DBActions instantiation started
10-05-19 12:12:02 INFO Database.DbActions DBActions instantiated
10-05-19 12:12:02 INFO Database.DbActionController DbController instantiated
10-05-19 12:12:02 INFO Database.DbActions Executing Sql SELECT
10-05-19 12:12:02 INFO Database.DbActions Executing Sql SELECT finished
10-05-19 12:12:02 INFO Utility.MailSender MailSender instantiation started
10-05-19 12:12:02 INFO Utility.TimeFormatHelper TimeFormat instantiation started
10-05-19 12:12:02 INFO Utility.TimeFormatHelper TimeFormat instantiated
10-05-19 12:12:02 INFO Utility.MailSender MailSender instantiation finished
10-05-19 12:12:02 INFO Sensors.SensorDataHandler SensorDataHandler instantiation started
10-05-19 12:12:02 INFO Sensors.SensorReader SensorReader instantiation started
10-05-19 12:12:02 INFO Sensors.SensorReader SensorReader instantiated
10-05-19 12:12:02 INFO Utility.MeasurementCompare MeasurementCompare instantiation started
10-05-19 12:12:02 INFO Utility.MeasurementCompare Instantiation done
10-05-19 12:12:02 INFO Sensors.SensorDataHandler SensorDataHandler instantiated
10-05-19 12:12:02 INFO Sensors.SensorReader Starting to collect temperature and humidity data from the the sensors
10-05-19 12:12:02 INFO Sensors.SensorReader Collecting data for sensor: Inside
10-05-19 12:12:02 INFO Sensors.SensorReader Get readings for the sensor Inside
10-05-19 12:12:02 INFO Sensors.SensorReader Start reading values for sensor type 22 in gpio 18
10-05-19 12:12:03 INFO Sensors.SensorReader Values from sensor: Temp=42.5*  Humidity=18.6%

10-05-19 12:12:03 INFO Sensors.SensorReader Check is measured temperature negative or positive
10-05-19 12:12:03 INFO Sensors.SensorReader Value is positive
10-05-19 12:12:03 INFO Sensors.SensorReader Read humidity readings
10-05-19 12:12:03 WARNING Sensors.SensorReader Humidity data too low
10-05-19 12:12:08 ERROR Sensors.SensorReader Failed to get readings for sensor: Inside
Traceback (most recent call last):
  File "/home/pi/185/src/logger/Sensors/SensorReader.py", line 59, in getSensorReadings
    temperature,humidity = self._getSensorReadings(sensorType,gpio)
  File "/home/pi/185/src/logger/Sensors/SensorReader.py", line 185, in _getSensorReadings
    temperature,humidity = self.sensorReader._getSensorReadings(sensorType,gpio)
AttributeError: SensorReader instance has no attribute 'sensorReader'
10-05-19 12:12:08 INFO Sensors.SensorReader Collecting data for sensor: Inside
10-05-19 12:12:08 INFO Sensors.SensorReader Get readings for the sensor Inside
10-05-19 12:12:08 INFO Sensors.SensorReader Start reading values for sensor type 22 in gpio 18
10-05-19 12:12:10 INFO Sensors.SensorReader Values from sensor: Temp=41.6*  Humidity=17.6%

10-05-19 12:12:10 INFO Sensors.SensorReader Check is measured temperature negative or positive
10-05-19 12:12:10 INFO Sensors.SensorReader Value is positive
10-05-19 12:12:10 INFO Sensors.SensorReader Read humidity readings
10-05-19 12:12:10 WARNING Sensors.SensorReader Humidity data too low
10-05-19 12:12:15 ERROR Sensors.SensorReader Failed to get readings for sensor: Inside
Traceback (most recent call last):
  File "/home/pi/185/src/logger/Sensors/SensorReader.py", line 59, in getSensorReadings
    temperature,humidity = self._getSensorReadings(sensorType,gpio)
  File "/home/pi/185/src/logger/Sensors/SensorReader.py", line 185, in _getSensorReadings
    temperature,humidity = self.sensorReader._getSensorReadings(sensorType,gpio)
AttributeError: SensorReader instance has no attribute 'sensorReader'
10-05-19 12:12:15 INFO Sensors.SensorReader Sensor readings collected
10-05-19 12:12:15 INFO Sensors.SensorDataHandler Successfully read: 0 sensors. Failed to read: 2 sensor(s)
10-05-19 12:12:15 ERROR Sensors.SensorDataHandler Failed to get readings from any of the sensors. Execution terminated
10-05-19 12:12:15 INFO Sensors.SensorDataHandler Send warning to indicate that none of the sensors provided data
10-05-19 12:12:15 INFO Utility.MailSender sendWarningEmail called
10-05-19 12:12:15 INFO Utility.MailSender _sendMail called. Sending mail...
10-05-19 12:12:17 INFO Utility.MailSender Mail sent
10-05-19 12:12:17 WARNING Sensors.SensorDataHandler Warning mail sent, no measurement values to continue with...terminate
10-05-19 12:13:01 INFO root DHT22logger execution started
10-05-19 12:13:01 INFO Configurations.ConfigHandler ConfigHandler instantiation started
10-05-19 12:13:01 INFO Configurations.ConfigHandler Instantiate ConfigReader
10-05-19 12:13:01 INFO Configurations.ConfigReader ConfigReader instantiation started
10-05-19 12:13:01 INFO Configurations.ConfigReader Loading configurations from config.json
10-05-19 12:13:01 INFO Configurations.ConfigReader ConfigReader instantiated
10-05-19 12:13:01 INFO Configurations.ConfigHandler Read configurations
10-05-19 12:13:01 INFO Configurations.ConfigHandler Configurations read succesfully
10-05-19 12:13:01 INFO Configurations.ConfigAdapter ConfigAdapter instantiation started
10-05-19 12:13:01 INFO Utility.TimeFormatHelper TimeFormat instantiation started
10-05-19 12:13:01 INFO Utility.TimeFormatHelper TimeFormat instantiated
10-05-19 12:13:01 INFO Configurations.ConfigAdapter ConfigAdapter instantiated
10-05-19 12:13:01 INFO Configurations.ConfigHandler ConfigHandler instantiated
10-05-19 12:13:01 INFO Configurations.ConfigHandler Get full configuration adaptation
10-05-19 12:13:01 INFO Configurations.ConfigAdapter Creating dictionary for full configurations
10-05-19 12:13:01 INFO Configurations.ConfigAdapter Configuration dictionary created
10-05-19 12:13:01 INFO Database.DbActionController DbController instantiation started
10-05-19 12:13:01 INFO Database.DbActions DBActions instantiation started
10-05-19 12:13:01 INFO Database.DbActions DBActions instantiated
10-05-19 12:13:01 INFO Database.DbActionController DbController instantiated
10-05-19 12:13:01 INFO Database.DbActions Executing Sql SELECT
10-05-19 12:13:01 INFO Database.DbActions Executing Sql SELECT finished
10-05-19 12:13:01 INFO Utility.MailSender MailSender instantiation started
10-05-19 12:13:01 INFO Utility.TimeFormatHelper TimeFormat instantiation started
10-05-19 12:13:01 INFO Utility.TimeFormatHelper TimeFormat instantiated
10-05-19 12:13:01 INFO Utility.MailSender MailSender instantiation finished
10-05-19 12:13:01 INFO Sensors.SensorDataHandler SensorDataHandler instantiation started
10-05-19 12:13:01 INFO Sensors.SensorReader SensorReader instantiation started
10-05-19 12:13:01 INFO Sensors.SensorReader SensorReader instantiated
10-05-19 12:13:01 INFO Utility.MeasurementCompare MeasurementCompare instantiation started
10-05-19 12:13:01 INFO Utility.MeasurementCompare Instantiation done
10-05-19 12:13:01 INFO Sensors.SensorDataHandler SensorDataHandler instantiated
10-05-19 12:13:01 INFO Sensors.SensorReader Starting to collect temperature and humidity data from the the sensors
10-05-19 12:13:01 INFO Sensors.SensorReader Collecting data for sensor: Inside
10-05-19 12:13:01 INFO Sensors.SensorReader Get readings for the sensor Inside
10-05-19 12:13:01 INFO Sensors.SensorReader Start reading values for sensor type 22 in gpio 18
10-05-19 12:13:03 INFO Sensors.SensorReader Values from sensor: Temp=41.7*  Humidity=18.1%

10-05-19 12:13:03 INFO Sensors.SensorReader Check is measured temperature negative or positive
10-05-19 12:13:03 INFO Sensors.SensorReader Value is positive
10-05-19 12:13:03 INFO Sensors.SensorReader Read humidity readings
10-05-19 12:13:03 WARNING Sensors.SensorReader Humidity data too low
